9
Coordinates from ORCA-job opt
  C   1.12258456172952      0.00019573268905      0.09186453454228
  O   0.46974381715364      0.43116726799988      1.01941940099116
  N   2.47503811073724     -0.01868552303230      0.04413089600494
  C   3.29381732327915      0.46281911590883      1.14232277576180
  H   0.66219021370379     -0.41722106297761     -0.82120414010430
  H   2.91577966391445     -0.44132914122462     -0.75382374584006
  H   4.30999723262985      0.62037315578045      0.78790513729414
  H   2.89128787069231      1.40440694834021      1.51107230560907
  H   3.31106120616001     -0.24540649348388      1.97333283574096
