45
Coordinates from ORCA-job opt E -1038.044681353244
  O       1.364081     -1.763826      0.636652
  O       1.466107     -1.112364     -1.614705
  O      -2.203424     -1.003860      0.091408
  O       1.016792      3.510120      0.191636
  H       0.508417      4.309617      0.387526
  C       0.185860      2.429301      0.161384
  C      -0.075813      0.035384     -0.166152
  C       0.744104      1.173387     -0.123527
  C      -1.449419      0.131146      0.072985
  C      -2.016397      1.390729      0.366792
  C       2.321368      0.041304     -1.692665
  H       2.053260      0.589283     -2.611580
  C       0.640564     -1.260537     -0.473822
  H      -0.071798     -2.053199     -0.733315
  C      -1.189896      2.524908      0.407308
  H      -1.632172      3.498667      0.639628
  C       2.068577     -0.824626      1.463571
  H       1.328035     -0.180892      1.972845
  C      -3.633045     -0.920491     -0.175406
  C       2.192426      0.919320     -0.434442
  H       2.714781      1.867516     -0.619084
  C       2.992347      0.095732      0.640498
  H       3.459782      0.791568      1.354566
  C       3.784422     -0.392277     -1.665080
  H       4.402609      0.443182     -2.032613
  H       3.964781     -1.255573     -2.323075
  C      -3.448451      1.426931      0.654181
  H      -3.879940      2.348226      1.055587
  C      -4.210127      0.342817      0.433021
  H      -5.283948      0.350589      0.638995
  C       4.068354     -0.684350     -0.176480
  H       5.089519     -0.392917      0.109292
  H       3.976266     -1.762756      0.016859
  C       2.788819     -1.634062      2.532574
  H       2.066710     -2.260768      3.077771
  H       3.279324     -0.963313      3.254727
  H       3.553768     -2.296101      2.098771
  C      -3.845934     -0.928420     -1.697481
  H      -3.349224     -0.063116     -2.162365
  H      -4.919369     -0.875002     -1.936235
  H      -3.434485     -1.851100     -2.136572
  C      -4.226211     -2.171184      0.473622
  H      -3.758990     -3.074821      0.053739
  H      -5.309804     -2.220724      0.288898
  H      -4.055267     -2.159001      1.560431
45
Coordinates from ORCA-job opt E -1038.047298549442
  O       1.357363     -1.765691      0.633091
  O       1.455818     -1.118811     -1.621013
  O      -2.190897     -1.013130      0.107732
  O       1.012949      3.495259      0.190807
  H       0.506157      4.290726      0.389959
  C       0.182487      2.409731      0.159752
  C      -0.076766      0.029169     -0.166154
  C       0.738678      1.162756     -0.128715
  C      -1.440271      0.123044      0.080026
  C      -2.005286      1.374763      0.374987
  C       2.312594      0.036869     -1.695178
  H       2.049393      0.578546     -2.605808
  C       0.631886     -1.263341     -0.477427
  H      -0.073677     -2.048570     -0.732589
  C      -1.184936      2.504251      0.411311
  H      -1.622975      3.468373      0.645614
  C       2.054762     -0.814180      1.455178
  H       1.314989     -0.176565      1.951076
  C      -3.617944     -0.918796     -0.168408
  C       2.181215      0.912886     -0.441851
  H       2.699046      1.851554     -0.627838
  C       2.975883      0.098865      0.633968
  H       3.436080      0.791546      1.339761
  C       3.770988     -0.397398     -1.660615
  H       4.384703      0.429185     -2.026215
  H       3.951856     -1.256350     -2.307020
  C      -3.430323      1.412074      0.667553
  H      -3.854778      2.324603      1.068116
  C      -4.190863      0.337832      0.440897
  H      -5.254618      0.346557      0.641562
  C       4.050616     -0.681834     -0.173019
  H       5.060193     -0.389236      0.111983
  H       3.960193     -1.749214      0.024953
  C       2.777698     -1.609813      2.524912
  H       2.066214     -2.229706      3.072137
  H       3.260724     -0.934609      3.232488
  H       3.539223     -2.263465      2.097438
  C      -3.813963     -0.911427     -1.686298
  H      -3.309214     -0.053068     -2.131939
  H      -4.875201     -0.847647     -1.930892
  H      -3.408998     -1.825796     -2.123657
  C      -4.222720     -2.166499      0.461954
  H      -3.762147     -3.060791      0.040484
  H      -5.294723     -2.203578      0.266913
  H      -4.064050     -2.164627      1.540651
45
Coordinates from ORCA-job opt E -1038.047467938888
  O       1.356985     -1.767920      0.634498
  O       1.449601     -1.126066     -1.623420
  O      -2.188597     -1.019631      0.125093
  O       1.009131      3.491560      0.184829
  H       0.501785      4.285786      0.385977
  C       0.179256      2.402060      0.157014
  C      -0.078179      0.025328     -0.165329
  C       0.735716      1.158754     -0.134283
  C      -1.438069      0.118044      0.088657
  C      -2.003215      1.367465      0.384917
  C       2.308995      0.030957     -1.698661
  H       2.045875      0.568809     -2.609858
  C       0.627288     -1.266894     -0.476596
  H      -0.076939     -2.052676     -0.729059
  C      -1.185131      2.496693      0.415775
  H      -1.622455      3.459963      0.651671
  C       2.051779     -0.808757      1.454216
  H       1.308558     -0.173555      1.944188
  C      -3.614311     -0.918413     -0.163945
  C       2.176717      0.909839     -0.449157
  H       2.694685      1.846386     -0.640247
  C       2.970459      0.101619      0.629997
  H       3.428675      0.796859      1.333021
  C       3.766226     -0.404675     -1.661175
  H       4.379821      0.419051     -2.030706
  H       3.946792     -1.267310     -2.301013
  C      -3.426599      1.405238      0.680999
  H      -3.848877      2.316476      1.085039
  C      -4.187097      0.334142      0.449918
  H      -5.250390      0.341018      0.649634
  C       4.046632     -0.680324     -0.172321
  H       5.054135     -0.382290      0.110721
  H       3.959558     -1.745722      0.031634
  C       2.778296     -1.597126      2.525849
  H       2.070571     -2.214409      3.079066
  H       3.261215     -0.915589      3.226251
  H       3.539744     -2.249563      2.099163
  C      -3.794179     -0.896663     -1.682961
  H      -3.279419     -0.037898     -2.113791
  H      -4.851908     -0.824135     -1.936394
  H      -3.390509     -1.809377     -2.122596
  C      -4.228562     -2.168616      0.449273
  H      -3.768300     -3.059651      0.022960
  H      -5.297952     -2.197464      0.243276
  H      -4.080451     -2.176876      1.528543
45
Coordinates from ORCA-job opt E -1038.047545093039
  O       1.357802     -1.769920      0.637701
  O       1.442943     -1.135731     -1.624470
  O      -2.188065     -1.026597      0.147576
  O       1.004095      3.489509      0.174128
  H       0.495192      4.282348      0.376438
  C       0.175314      2.396132      0.152588
  C      -0.079988      0.021038     -0.164282
  C       0.732810      1.155453     -0.141115
  C      -1.437105      0.112665      0.099769
  C      -2.002959      1.360901      0.398016
  C       2.305309      0.022202     -1.702900
  H       2.041091      0.554838     -2.616603
  C       0.623063     -1.271493     -0.473999
  H      -0.080155     -2.059334     -0.722548
  C      -1.186748      2.491163      0.421003
  H      -1.623388      3.454419      0.658343
  C       2.049987     -0.802520      1.454428
  H       1.301892     -0.169173      1.938272
  C      -3.611525     -0.918075     -0.159105
  C       2.172683      0.906450     -0.458272
  H       2.691496      1.841200     -0.656559
  C       2.966390      0.104988      0.625483
  H       3.423037      0.804388      1.325597
  C       3.761557     -0.415235     -1.663189
  H       4.375517      0.405084     -2.039827
  H       3.940764     -1.283917     -2.295096
  C      -3.425187      1.398328      0.699844
  H      -3.845027      2.307890      1.110466
  C      -4.185680      0.328949      0.463789
  H      -5.248932      0.331852      0.664871
  C       4.044771     -0.678610     -0.172385
  H       5.050976     -0.372555      0.106854
  H       3.963143     -1.742706      0.039860
  C       2.779194     -1.583267      2.529561
  H       2.073973     -2.196280      3.090544
  H       3.263685     -0.894487      3.222022
  H       3.540080     -2.236992      2.104232
  C      -3.771809     -0.876754     -1.680172
  H      -3.245431     -0.016011     -2.092412
  H      -4.826093     -0.793810     -1.944670
  H      -3.368650     -1.787235     -2.124808
  C      -4.235622     -2.173799      0.431002
  H      -3.774106     -3.060399     -0.003015
  H      -5.302744     -2.194042      0.211961
  H      -4.100193     -2.196406      1.511746
45
Coordinates from ORCA-job opt E -1038.047565026406
  O       1.358856     -1.770189      0.640960
  O       1.439229     -1.142060     -1.623265
  O      -2.188808     -1.029995      0.160749
  O       1.000763      3.488930      0.165357
  H       0.490579      4.281174      0.367139
  C       0.172874      2.394241      0.148966
  C      -0.081217      0.018485     -0.163298
  C       0.731152      1.153979     -0.145003
  C      -1.437357      0.109734      0.106400
  C      -2.003780      1.358018      0.405641
  C       2.302923      0.015718     -1.704953
  H       2.037678      0.544654     -2.620809
  C       0.621348     -1.274544     -0.470964
  H      -0.081628     -2.063993     -0.716260
  C      -1.188374      2.489414      0.423335
  H      -1.624576      3.452933      0.661070
  C       2.050077     -0.798787      1.455341
  H       1.299687     -0.165890      1.936602
  C      -3.610306     -0.917803     -0.156993
  C       2.170604      0.904326     -0.463517
  H       2.689830      1.838216     -0.666442
  C       2.965171      0.107199      0.623157
  H       3.421052      0.809517      1.321330
  C       3.758774     -0.422624     -1.664586
  H       4.372997      0.395085     -2.047149
  H       3.936335     -1.295598     -2.291364
  C      -3.425345      1.394493      0.712357
  H      -3.843457      2.302442      1.128743
  C      -4.185883      0.325172      0.473935
  H      -5.248752      0.324785      0.678289
  C       4.044986     -0.677225     -0.172456
  H       5.050568     -0.365185      0.103316
  H       3.967981     -1.740676      0.045778
  C       2.780167     -1.575609      2.532816
  H       2.075432     -2.184855      3.098796
  H       3.267151     -0.883421      3.220570
  H       3.539598     -2.232067      2.108548
  C      -3.759972     -0.862934     -1.679097
  H      -3.227916     -0.000173     -2.080137
  H      -4.812511     -0.774166     -1.949371
  H      -3.356763     -1.771223     -2.128623
  C      -4.239243     -2.178234      0.417547
  H      -3.776526     -3.061431     -0.022505
  H      -5.305299     -2.194159      0.191624
  H      -4.110741     -2.211228      1.499094
45
Coordinates from ORCA-job opt E -1038.047571678288
  O       1.359652     -1.769699      0.643427
  O       1.437371     -1.145629     -1.621563
  O      -2.189673     -1.031367      0.166870
  O       0.998937      3.488514      0.159537
  H       0.488117      4.280765      0.360033
  C       0.171600      2.393817      0.146448
  C      -0.081956      0.016990     -0.162490
  C       0.730178      1.153158     -0.146837
  C      -1.437818      0.108210      0.109525
  C      -2.004480      1.356788      0.409006
  C       2.301464      0.011553     -1.705607
  H       2.035813      0.538345     -2.622796
  C       0.620929     -1.276432     -0.468542
  H      -0.082229     -2.066702     -0.711482
  C      -1.189418      2.488856      0.423726
  H      -1.625333      3.452598      0.661404
  C       2.050674     -0.796803      1.456110
  H       1.299799     -0.163677      1.936770
  C      -3.609778     -0.917603     -0.156436
  C       2.169500      0.903032     -0.466018
  H       2.688685      1.836605     -0.671366
  C       2.965028      0.108570      0.622221
  H       3.420299      0.812665      1.319222
  C       3.757226     -0.427078     -1.665125
  H       4.371596      0.388648     -2.051986
  H       3.933310     -1.302748     -2.288762
  C      -3.425473      1.392315      0.719356
  H      -3.842332      2.298967      1.139999
  C      -4.186161      0.322732      0.480353
  H      -5.248374      0.320311      0.688517
  C       4.045829     -0.675871     -0.172216
  H       5.050901     -0.359458      0.100915
  H       3.972639     -1.738891      0.050050
  C       2.780904     -1.571816      2.534872
  H       2.075824     -2.178047      3.103840
  H       3.270446     -0.878570      3.219945
  H       3.538502     -2.231156      2.111387
  C      -3.755050     -0.854357     -1.678745
  H      -3.221268      0.010055     -2.074174
  H      -4.806945     -0.763046     -1.951017
  H      -3.351671     -1.760738     -2.132226
  C      -4.240780     -2.181175      0.408898
  H      -3.777576     -3.062105     -0.035403
  H      -5.306447     -2.195160      0.180348
  H      -4.115101     -2.220921      1.490683
45
Coordinates from ORCA-job opt E -1038.047574411065
  O       1.360175     -1.769203      0.644922
  O       1.436438     -1.147443     -1.620295
  O      -2.190330     -1.031881      0.169097
  O       0.998095      3.488001      0.156285
  H       0.487195      4.280583      0.355393
  C       0.171012      2.393642      0.144921
  C      -0.082396      0.016067     -0.161878
  C       0.729535      1.152500     -0.147560
  C      -1.438180      0.107365      0.110672
  C      -2.004833      1.356149      0.410026
  C       2.300609      0.009126     -1.705631
  H       2.035126      0.534947     -2.623479
  C       0.620956     -1.277585     -0.467010
  H      -0.082515     -2.068097     -0.708476
  C      -1.189924      2.488442      0.423301
  H      -1.625642      3.452326      0.660817
  C       2.051174     -0.795932      1.456508
  H       1.300608     -0.162442      1.937372
  C      -3.609577     -0.917464     -0.156437
  C       2.168827      0.902242     -0.467036
  H       2.687732      1.835756     -0.673463
  C       2.965057      0.109407      0.621970
  H       3.419631      0.814512      1.318402
  C       3.756404     -0.429553     -1.665091
  H       4.370862      0.384668     -2.054941
  H       3.931310     -1.306913     -2.286725
  C      -3.425339      1.391009      0.722750
  H      -3.841353      2.296829      1.146020
  C      -4.186247      0.321323      0.483985
  H      -5.247805      0.317996      0.695365
  C       4.046712     -0.674481     -0.171742
  H       5.051232     -0.354683      0.099535
  H       3.976745     -1.737159      0.053248
  C       2.781444     -1.570145      2.535839
  H       2.075905     -2.174170      3.106624
  H       3.273149     -0.876848      3.219304
  H       3.537321     -2.231839      2.112825
  C      -3.753490     -0.849438     -1.678572
  H      -3.219862      0.016195     -2.071558
  H      -4.805271     -0.757432     -1.951071
  H      -3.349850     -1.754341     -2.134820
  C      -4.241451     -2.182781      0.403914
  H      -3.778339     -3.062381     -0.043140
  H      -5.307021     -2.195831      0.174849
  H      -4.116475     -2.226592      1.485652
45
Coordinates from ORCA-job opt E -1038.047575606013
  O       1.360436     -1.769078      0.645303
  O       1.436054     -1.147974     -1.619922
  O      -2.190641     -1.032033      0.169306
  O       0.997927      3.487580      0.155289
  H       0.487227      4.280518      0.353451
  C       0.170865      2.393433      0.144361
  C      -0.082590      0.015638     -0.161592
  C       0.729204      1.152053     -0.147701
  C      -1.438343      0.107005      0.110773
  C      -2.004887      1.355840      0.409955
  C       2.300319      0.008215     -1.705485
  H       2.035307      0.533929     -2.623491
  C       0.621011     -1.278082     -0.466537
  H      -0.082681     -2.068517     -0.707478
  C      -1.190015      2.488079      0.422863
  H      -1.625621      3.452019      0.660290
  C       2.051337     -0.795854      1.456508
  H       1.301125     -0.162188      1.937682
  C      -3.609583     -0.917392     -0.156495
  C       2.168512      0.901899     -0.467244
  H       2.687158      1.835450     -0.673934
  C       2.964986      0.109789      0.622037
  H       3.418875      0.815279      1.318449
  C       3.756148     -0.430534     -1.664810
  H       4.370685      0.382755     -2.056318
  H       3.930309     -1.308804     -2.285324
  C      -3.425129      1.390448      0.723637
  H      -3.840779      2.295980      1.147832
  C      -4.186226      0.320835      0.485272
  H      -5.247401      0.317455      0.698326
  C       4.047369     -0.673335     -0.171253
  H       5.051396     -0.351262      0.099043
  H       3.979688     -1.735797      0.055243
  C       2.781686     -1.569846      2.535937
  H       2.075891     -2.172724      3.107586
  H       3.274656     -0.876756      3.218619
  H       3.536487     -2.232821      2.113058
  C      -3.753468     -0.847620     -1.678439
  H      -3.220561      0.018670     -2.070860
  H      -4.805332     -0.755896     -1.950617
  H      -3.349510     -1.751726     -2.135929
  C      -4.241728     -2.183249      0.402168
  H      -3.778974     -3.062383     -0.046116
  H      -5.307325     -2.195861      0.173439
  H      -4.116502     -2.228690      1.483787
