
                                 *****************
                                 * O   R   C   A *
                                 *****************

                                            #,                                       
                                            ###                                      
                                            ####                                     
                                            #####                                    
                                            ######                                   
                                           ########,                                 
                                     ,,################,,,,,                         
                               ,,#################################,,                 
                          ,,##########################################,,             
                       ,#########################################, ''#####,          
                    ,#############################################,,   '####,        
                  ,##################################################,,,,####,       
                ,###########''''           ''''###############################       
              ,#####''   ,,,,##########,,,,          '''####'''          '####       
            ,##' ,,,,###########################,,,                        '##       
           ' ,,###''''                  '''############,,,                           
         ,,##''                                '''############,,,,        ,,,,,,###''
      ,#''                                            '''#######################'''  
     '                                                          ''''####''''         
             ,#######,   #######,   ,#######,      ##                                
            ,#'     '#,  ##    ##  ,#'     '#,    #''#        ######   ,####,        
            ##       ##  ##   ,#'  ##            #'  '#       #        #'  '#        
            ##       ##  #######   ##           ,######,      #####,   #    #        
            '#,     ,#'  ##    ##  '#,     ,#' ,#      #,         ##   #,  ,#        
             '#######'   ##     ##  '#######'  #'      '#     #####' # '####'        



                  #######################################################
                  #                        -***-                        #
                  #          Department of theory and spectroscopy      #
                  #    Directorship and core code : Frank Neese         #
                  #        Max Planck Institute fuer Kohlenforschung    #
                  #                Kaiser Wilhelm Platz 1               #
                  #                 D-45470 Muelheim/Ruhr               #
                  #                      Germany                        #
                  #                                                     #
                  #                  All rights reserved                #
                  #                        -***-                        #
                  #######################################################


                         Program Version 5.0.3 -  RELEASE  -


 With contributions from (in alphabetic order):
   Daniel Aravena         : Magnetic Suceptibility
   Michael Atanasov       : Ab Initio Ligand Field Theory (pilot matlab implementation)
   Alexander A. Auer      : GIAO ZORA, VPT2 properties, NMR spectrum
   Ute Becker             : Parallelization
   Giovanni Bistoni       : ED, misc. LED, open-shell LED, HFLD
   Martin Brehm           : Molecular dynamics
   Dmytro Bykov           : SCF Hessian
   Vijay G. Chilkuri      : MRCI spin determinant printing, contributions to CSF-ICE
   Dipayan Datta          : RHF DLPNO-CCSD density
   Achintya Kumar Dutta   : EOM-CC, STEOM-CC
   Dmitry Ganyushin       : Spin-Orbit,Spin-Spin,Magnetic field MRCI
   Miquel Garcia          : C-PCM and meta-GGA Hessian, CC/C-PCM, Gaussian charge scheme
   Yang Guo               : DLPNO-NEVPT2, F12-NEVPT2, CIM, IAO-localization
   Andreas Hansen         : Spin unrestricted coupled pair/coupled cluster methods
   Benjamin Helmich-Paris : MC-RPA, TRAH-SCF, COSX integrals
   Lee Huntington         : MR-EOM, pCC
   Robert Izsak           : Overlap fitted RIJCOSX, COSX-SCS-MP3, EOM
   Marcus Kettner         : VPT2
   Christian Kollmar      : KDIIS, OOCD, Brueckner-CCSD(T), CCSD density, CASPT2, CASPT2-K
   Simone Kossmann        : Meta GGA functionals, TD-DFT gradient, OOMP2, MP2 Hessian
   Martin Krupicka        : Initial AUTO-CI
   Lucas Lang             : DCDCAS
   Marvin Lechner         : AUTO-CI (C++ implementation), FIC-MRCC
   Dagmar Lenk            : GEPOL surface, SMD
   Dimitrios Liakos       : Extrapolation schemes; Compound Job, initial MDCI parallelization
   Dimitrios Manganas     : Further ROCIS development; embedding schemes
   Dimitrios Pantazis     : SARC Basis sets
   Anastasios Papadopoulos: AUTO-CI, single reference methods and gradients
   Taras Petrenko         : DFT Hessian,TD-DFT gradient, ASA, ECA, R-Raman, ABS, FL, XAS/XES, NRVS
   Peter Pinski           : DLPNO-MP2, DLPNO-MP2 Gradient
   Christoph Reimann      : Effective Core Potentials
   Marius Retegan         : Local ZFS, SOC
   Christoph Riplinger    : Optimizer, TS searches, QM/MM, DLPNO-CCSD(T), (RO)-DLPNO pert. Triples
   Tobias Risthaus        : Range-separated hybrids, TD-DFT gradient, RPA, STAB
   Michael Roemelt        : Original ROCIS implementation
   Masaaki Saitow         : Open-shell DLPNO-CCSD energy and density
   Barbara Sandhoefer     : DKH picture change effects
   Avijit Sen             : IP-ROCIS
   Kantharuban Sivalingam : CASSCF convergence, NEVPT2, FIC-MRCI
   Bernardo de Souza      : ESD, SOC TD-DFT
   Georgi Stoychev        : AutoAux, RI-MP2 NMR, DLPNO-MP2 response
   Willem Van den Heuvel  : Paramagnetic NMR
   Boris Wezisla          : Elementary symmetry handling
   Frank Wennmohs         : Technical directorship


 We gratefully acknowledge several colleagues who have allowed us to
 interface, adapt or use parts of their codes:
   Stefan Grimme, W. Hujo, H. Kruse, P. Pracht,  : VdW corrections, initial TS optimization,
                  C. Bannwarth, S. Ehlert          DFT functionals, gCP, sTDA/sTD-DF
   Ed Valeev, F. Pavosevic, A. Kumar             : LibInt (2-el integral package), F12 methods
   Garnet Chan, S. Sharma, J. Yang, R. Olivares  : DMRG
   Ulf Ekstrom                                   : XCFun DFT Library
   Mihaly Kallay                                 : mrcc  (arbitrary order and MRCC methods)
   Jiri Pittner, Ondrej Demel                    : Mk-CCSD
   Frank Weinhold                                : gennbo (NPA and NBO analysis)
   Christopher J. Cramer and Donald G. Truhlar   : smd solvation model
   Lars Goerigk                                  : TD-DFT with DH, B97 family of functionals
   V. Asgeirsson, H. Jonsson                     : NEB implementation
   FAccTs GmbH                                   : IRC, NEB, NEB-TS, DLPNO-Multilevel, CI-OPT
                                                   MM, QMMM, 2- and 3-layer-ONIOM, Crystal-QMMM,
                                                   LR-CPCM, SF, NACMEs, symmetry and pop. for TD-DFT,
                                                   nearIR, NL-DFT gradient (VV10), updates on ESD,
                                                   ML-optimized integration grids
   S Lehtola, MJT Oliveira, MAL Marques          : LibXC Library
   Liviu Ungur et al                             : ANISO software


 Your calculation uses the libint2 library for the computation of 2-el integrals
 For citations please refer to: http://libint.valeyev.net

 Your ORCA version has been built with support for libXC version: 5.1.0
 For citations please refer to: https://tddft.org/programs/libxc/

 This ORCA versions uses:
   CBLAS   interface :  Fast vector & matrix operations
   LAPACKE interface :  Fast linear algebra routines
   SCALAPACK package :  Parallel linear algebra routines
   Shared memory     :  Shared parallel matrices
   BLAS/LAPACK       :  OpenBLAS 0.3.15  USE64BITINT DYNAMIC_ARCH NO_AFFINITY Zen SINGLE_THREADED
        Core in use  :  Zen
   Copyright (c) 2011-2014, The OpenBLAS Project




***************************************
The coordinates will be read from file: geom.xyz
***************************************



Warning: The global flag for chemical shieldings has been found
         but shieldings for certain elements have also been explicitly requested in the EPRNMR block
         ==>> only the requested shieldings will be calculated

================================================================================

----- Orbital basis set information -----
Your calculation utilizes the basis: def2-TZVPP
   F. Weigend and R. Ahlrichs, Phys. Chem. Chem. Phys. 7, 3297 (2005).

----- AuxJ basis set information -----
Your calculation utilizes the auxiliary basis: def2/J
   F. Weigend, Phys. Chem. Chem. Phys. 8, 1057 (2006).

================================================================================
                                        WARNINGS
                       Please study these warnings very carefully!
================================================================================

WARNING: Old DensityContainer found on disk!
         Will remove this file - 
         If you want to keep old densities, please start your calculation with a different basename. 


INFO   : the flag for use of the SHARK integral package has been found!

================================================================================
                                       INPUT FILE
================================================================================
NAME = nmr.com
|  1> ! B3LYP def2-TZVPP def2/J RIJCOSX NMR CPCM(Ethanol)
|  2> 
|  3> * xyzFILE 0 1 geom.xyz
|  4> 
|  5> %MaxCore 32000
|  6> 
|  7> %pal nprocs 8
|  8> end
|  9> 
| 10> %EPRNMR
| 11>      NUCLEI = ALL {SHIFT}
| 12> END
| 13> 
| 14>                          ****END OF INPUT****
================================================================================

                       ****************************
                       * Single Point Calculation *
                       ****************************

---------------------------------
CARTESIAN COORDINATES (ANGSTROEM)
---------------------------------
  C      1.134570   -0.010771    0.040048
  O      0.398184    0.362219    0.928645
  N      2.489928    0.002379    0.080403
  C      3.249811    0.471182    1.224158
  H      0.754590   -0.408861   -0.917280
  H      2.981281   -0.334134   -0.729657
  H      2.541953    0.774841    1.990437
  H      3.873187    1.326373    0.958227
  H      3.886206   -0.320548    1.622549

----------------------------
CARTESIAN COORDINATES (A.U.)
----------------------------
  NO LB      ZA    FRAG     MASS         X           Y           Z
   0 C     6.0000    0    12.011    2.144027   -0.020354    0.075680
   1 O     8.0000    0    15.999    0.752459    0.684495    1.754885
   2 N     7.0000    0    14.007    4.705282    0.004495    0.151940
   3 C     6.0000    0    12.011    6.141253    0.890404    2.313324
   4 H     1.0000    0     1.008    1.425969   -0.772636   -1.733407
   5 H     1.0000    0     1.008    5.633804   -0.631422   -1.378852
   6 H     1.0000    0     1.008    4.803594    1.464237    3.761381
   7 H     1.0000    0     1.008    7.319263    2.506482    1.810787
   8 H     1.0000    0     1.008    7.343865   -0.605747    3.066172

--------------------------------
INTERNAL COORDINATES (ANGSTROEM)
--------------------------------
 C      0   0   0     0.000000000000     0.00000000     0.00000000
 O      1   0   0     1.212843982900     0.00000000     0.00000000
 N      1   2   0     1.356022114710   125.59648953     0.00000000
 C      3   1   2     1.450990703170   123.36936915     0.28931328
 H      1   2   3     1.104236066668   122.48797241   180.03110135
 H      3   1   2     1.005418214662   117.46728794   180.17899059
 H      4   3   1     1.086487725272   107.76099747     0.69282934
 H      4   3   1     1.091178176837   111.11822323   241.37869773
 H      4   3   1     1.091122628131   111.02755021   119.97165268

---------------------------
INTERNAL COORDINATES (A.U.)
---------------------------
 C      0   0   0     0.000000000000     0.00000000     0.00000000
 O      1   0   0     2.291942970855     0.00000000     0.00000000
 N      1   2   0     2.562510428343   125.59648953     0.00000000
 C      3   1   2     2.741975051857   123.36936915     0.28931328
 H      1   2   3     2.086703753201   122.48797241   180.03110135
 H      3   1   2     1.899965075768   117.46728794   180.17899059
 H      4   3   1     2.053164248631   107.76099747     0.69282934
 H      4   3   1     2.062027917533   111.11822323   241.37869773
 H      4   3   1     2.061922945693   111.02755021   119.97165268

---------------------
BASIS SET INFORMATION
---------------------
There are 4 groups of distinct atoms

 Group   1 Type C   : 11s6p2d1f contracted to 5s3p2d1f pattern {62111/411/11/1}
 Group   2 Type O   : 11s6p2d1f contracted to 5s3p2d1f pattern {62111/411/11/1}
 Group   3 Type N   : 11s6p2d1f contracted to 5s3p2d1f pattern {62111/411/11/1}
 Group   4 Type H   : 5s2p1d contracted to 3s2p1d pattern {311/11/1}

Atom   0C    basis set group =>   1
Atom   1O    basis set group =>   2
Atom   2N    basis set group =>   3
Atom   3C    basis set group =>   1
Atom   4H    basis set group =>   4
Atom   5H    basis set group =>   4
Atom   6H    basis set group =>   4
Atom   7H    basis set group =>   4
Atom   8H    basis set group =>   4
---------------------------------
AUXILIARY/J BASIS SET INFORMATION
---------------------------------
There are 4 groups of distinct atoms

 Group   1 Type C   : 12s5p4d2f1g contracted to 6s4p3d1f1g pattern {711111/2111/211/2/1}
 Group   2 Type O   : 12s5p4d2f1g contracted to 6s4p3d1f1g pattern {711111/2111/211/2/1}
 Group   3 Type N   : 12s5p4d2f1g contracted to 6s4p3d1f1g pattern {711111/2111/211/2/1}
 Group   4 Type H   : 5s2p1d contracted to 3s1p1d pattern {311/2/1}

Atom   0C    basis set group =>   1
Atom   1O    basis set group =>   2
Atom   2N    basis set group =>   3
Atom   3C    basis set group =>   1
Atom   4H    basis set group =>   4
Atom   5H    basis set group =>   4
Atom   6H    basis set group =>   4
Atom   7H    basis set group =>   4
Atom   8H    basis set group =>   4

Checking for AutoStart:
The File: nmr.gbw exists
Trying to determine its content:
     ... Fine, the file contains calculation information
     ... Fine, the calculation information was read
     ... Fine, the file contains a basis set
     ... Fine, the basis set was read
     ... Fine, the file contains a geometry
     ... Fine, the geometry was read
     ... Fine, the file contains a set of orbitals
     ... Fine, the orbitals can be read
     => possible old guess file was deleted
     => GBW file was renamed to GES file
     => GES file is set as startup file
     => Guess is set to MORead
     ... now leaving AutoStart



           ************************************************************
           *        Program running with 8 parallel MPI-processes     *
           *              working on a common directory               *
           ************************************************************
------------------------------------------------------------------------------
                           ORCA GTO INTEGRAL CALCULATION
                           -- RI-GTO INTEGRALS CHOSEN --
------------------------------------------------------------------------------
------------------------------------------------------------------------------
                   ___                                                        
                  /   \      - P O W E R E D   B Y -                         
                 /     \                                                     
                 |  |  |   _    _      __       _____    __    __             
                 |  |  |  | |  | |    /  \     |  _  \  |  |  /  |          
                  \  \/   | |  | |   /    \    | | | |  |  | /  /          
                 / \  \   | |__| |  /  /\  \   | |_| |  |  |/  /          
                |  |  |   |  __  | /  /__\  \  |    /   |      \           
                |  |  |   | |  | | |   __   |  |    \   |  |\   \          
                \     /   | |  | | |  |  |  |  | |\  \  |  | \   \       
                 \___/    |_|  |_| |__|  |__|  |_| \__\ |__|  \__/        
                                                                              
                      - O R C A' S   B I G   F R I E N D -                    
                                      &                                       
                       - I N T E G R A L  F E E D E R -                       
                                                                              
 v1 FN, 2020, v2 2021                                                         
------------------------------------------------------------------------------


Reading SHARK input file nmr.SHARKINP.tmp ... ok
----------------------
SHARK INTEGRAL PACKAGE
----------------------

Number of atoms                             ...      9
Number of basis functions                   ...    194
Number of shells                            ...     74
Maximum angular momentum                    ...      3
Integral batch strategy                     ... SHARK/LIBINT Hybrid
RI-J (if used) integral strategy            ... SPLIT-RIJ (Revised 2003 algorithm where possible)
Printlevel                                  ...      1
Contraction scheme used                     ... SEGMENTED contraction
Coulomb Range Separation                    ... NOT USED
Exchange Range Separation                   ... NOT USED
Finite Nucleus Model                        ... NOT USED
Auxiliary Coulomb fitting basis             ... AVAILABLE
   # of basis functions in Aux-J            ...    251
   # of shells in Aux-J                     ...     85
   Maximum angular momentum in Aux-J        ...      4
Auxiliary J/K fitting basis                 ... NOT available
Auxiliary Correlation fitting basis         ... NOT available
Auxiliary 'external' fitting basis          ... NOT available
Integral threshold                          ...     1.000000e-10
Primitive cut-off                           ...     1.000000e-11
Primitive pair pre-selection threshold      ...     1.000000e-11

Calculating pre-screening integrals         ... done (  0.0 sec) Dimension = 74
Organizing shell pair data                  ... done (  0.0 sec)
Shell pair information
Total number of shell pairs                 ...      2775
Shell pairs after pre-screening             ...      2674
Total number of primitive shell pairs       ...      7363
Primitive shell pairs kept                  ...      5948
          la=0 lb=0:    596 shell pairs
          la=1 lb=0:    743 shell pairs
          la=1 lb=1:    248 shell pairs
          la=2 lb=0:    434 shell pairs
          la=2 lb=1:    279 shell pairs
          la=2 lb=2:     89 shell pairs
          la=3 lb=0:    137 shell pairs
          la=3 lb=1:     86 shell pairs
          la=3 lb=2:     52 shell pairs
          la=3 lb=3:     10 shell pairs

Calculating one electron integrals          ... done (  0.0 sec)
Calculating RI/J V-Matrix + Cholesky decomp.... done (  0.0 sec)
Calculating Nuclear repulsion               ... done (  0.0 sec) ENN=    121.497397385373 Eh

SHARK setup successfully completed in   0.1 seconds

Maximum memory used throughout the entire GTOINT-calculation: 16.2 MB


           ************************************************************
           *        Program running with 8 parallel MPI-processes     *
           *              working on a common directory               *
           ************************************************************
-------------------------------------------------------------------------------
                                 ORCA SCF
-------------------------------------------------------------------------------

------------
SCF SETTINGS
------------
Hamiltonian:
 Density Functional     Method          .... DFT(GTOs)
 Exchange Functional    Exchange        .... B88
   X-Alpha parameter    XAlpha          ....  0.666667
   Becke's b parameter  XBeta           ....  0.004200
 Correlation Functional Correlation     .... LYP
 LDA part of GGA corr.  LDAOpt          .... VWN-5
 Gradients option       PostSCFGGA      .... off
 Hybrid DFT is turned on
   Fraction HF Exchange ScalHFX         ....  0.200000
   Scaling of DF-GGA-X  ScalDFX         ....  0.720000
   Scaling of DF-GGA-C  ScalDFC         ....  0.810000
   Scaling of DF-LDA-C  ScalLDAC        ....  1.000000
   Perturbative correction              ....  0.000000
   Density functional embedding theory  .... OFF
   NL short-range parameter             ....  4.800000
 RI-approximation to the Coulomb term is turned on
   Number of AuxJ basis functions       .... 251
   RIJ-COSX (HFX calculated with COS-X)).... on


General Settings:
 Integral files         IntName         .... nmr
 Hartree-Fock type      HFTyp           .... RHF
 Total Charge           Charge          ....    0
 Multiplicity           Mult            ....    1
 Number of Electrons    NEL             ....   32
 Basis Dimension        Dim             ....  194
 Nuclear Repulsion      ENuc            ....    121.4973973854 Eh

Convergence Acceleration:
 DIIS                   CNVDIIS         .... on
   Start iteration      DIISMaxIt       ....    12
   Startup error        DIISStart       ....  0.200000
   # of expansion vecs  DIISMaxEq       ....     5
   Bias factor          DIISBfac        ....   1.050
   Max. coefficient     DIISMaxC        ....  10.000
 Trust-Rad. Augm. Hess. CNVTRAH         .... auto
   Auto Start mean grad. ratio tolernc. ....  1.125000
   Auto Start start iteration           ....     1
   Auto Start num. interpolation iter.  ....    10
   Max. Number of Micro iterations      ....    16
   Max. Number of Macro iterations      .... Maxiter - #DIIS iter
   Number of Davidson start vectors     ....     2
   Converg. threshold I  (grad. norm)   ....   5.000e-05
   Converg. threshold II (energy diff.) ....   1.000e-06
   Grad. Scal. Fac. for Micro threshold ....   0.100
   Minimum threshold for Micro iter.    ....   0.010
   NR start threshold (gradient norm)   ....   0.001
   Initial trust radius                 ....   0.400
   Minimum AH scaling param. (alpha)    ....   1.000
   Maximum AH scaling param. (alpha)    .... 1000.000
   Orbital update algorithm             .... Taylor
   White noise on init. David. guess    .... on
   Maximum white noise                  ....   0.010
   Quad. conv. algorithm                .... NR
 SOSCF                  CNVSOSCF        .... on
   Start iteration      SOSCFMaxIt      ....   150
   Startup grad/error   SOSCFStart      ....  0.003300
 Level Shifting         CNVShift        .... on
   Level shift para.    LevelShift      ....    0.2500
   Turn off err/grad.   ShiftErr        ....    0.0010
 Zerner damping         CNVZerner       .... off
 Static damping         CNVDamp         .... on
   Fraction old density DampFac         ....    0.7000
   Max. Damping (<1)    DampMax         ....    0.9800
   Min. Damping (>=0)   DampMin         ....    0.0000
   Turn off err/grad.   DampErr         ....    0.1000
 Fernandez-Rico         CNVRico         .... off

SCF Procedure:
 Maximum # iterations   MaxIter         ....   125
 SCF integral mode      SCFMode         .... Direct
   Integral package                     .... SHARK and LIBINT hybrid scheme
 Reset frequency        DirectResetFreq ....    20
 Integral Threshold     Thresh          ....  1.000e-10 Eh
 Primitive CutOff       TCut            ....  1.000e-11 Eh

Convergence Tolerance:
 Convergence Check Mode ConvCheckMode   .... Total+1el-Energy
 Convergence forced     ConvForced      .... 0
 Energy Change          TolE            ....  1.000e-06 Eh
 1-El. energy change                    ....  1.000e-03 Eh
 Orbital Gradient       TolG            ....  5.000e-05
 Orbital Rotation angle TolX            ....  5.000e-05
 DIIS Error             TolErr          ....  1.000e-06


Diagonalization of the overlap matrix:
Smallest eigenvalue                        ... 4.640e-04
Time for diagonalization                   ...    0.004 sec
Threshold for overlap eigenvalues          ... 1.000e-08
Number of eigenvalues below threshold      ... 0
Time for construction of square roots      ...    0.003 sec
Total time needed                          ...    0.008 sec

---------------------
INITIAL GUESS: MOREAD
---------------------
Guess MOs are being read from file: nmr.ges
Input Geometry matches current geometry (good)
Input basis set matches current basis set (good)
MOs were renormalized
MOs were reorthogonalized (Cholesky)
                      ------------------
                      INITIAL GUESS DONE (   0.0 sec)
                      ------------------
-------------------
DFT GRID GENERATION
-------------------

General Integration Accuracy     IntAcc      ... 4.388
Radial Grid Type                 RadialGrid  ... OptM3 with GC (2021)
Angular Grid (max. ang.)         AngularGrid ... 4 (Lebedev-302)
Angular grid pruning method      GridPruning ... 4 (adaptive)
Weight generation scheme         WeightScheme... Becke
Basis function cutoff            BFCut       ... 1.0000e-10
Integration weight cutoff        WCut        ... 1.0000e-14
Angular grids for H and He will be reduced by one unit
Partially contracted basis set               ... off
Rotationally invariant grid construction     ... off

Total number of grid points                  ...    40583
Total number of batches                      ...      640
Average number of points per batch           ...       63
Average number of grid points per atom       ...     4509
Time for grid setup =    0.166 sec

--------------------
COSX GRID GENERATION
--------------------

GRIDX 1
-------
General Integration Accuracy     IntAcc      ... 3.816
Radial Grid Type                 RadialGrid  ... OptM3 with GC (2021)
Angular Grid (max. ang.)         AngularGrid ... 1 (Lebedev-50)
Angular grid pruning method      GridPruning ... 4 (adaptive)
Weight generation scheme         WeightScheme... Becke
Basis function cutoff            BFCut       ... 1.0000e-10
Integration weight cutoff        WCut        ... 1.0000e-14
Angular grids for H and He will be reduced by one unit
Partially contracted basis set               ... on
Rotationally invariant grid construction     ... off

Total number of grid points                  ...     5220
Total number of batches                      ...       87
Average number of points per batch           ...       60
Average number of grid points per atom       ...      580
UseSFitting                                  ... on

GRIDX 2
-------
General Integration Accuracy     IntAcc      ... 4.020
Radial Grid Type                 RadialGrid  ... OptM3 with GC (2021)
Angular Grid (max. ang.)         AngularGrid ... 2 (Lebedev-110)
Angular grid pruning method      GridPruning ... 4 (adaptive)
Weight generation scheme         WeightScheme... Becke
Basis function cutoff            BFCut       ... 1.0000e-10
Integration weight cutoff        WCut        ... 1.0000e-14
Angular grids for H and He will be reduced by one unit
Partially contracted basis set               ... on
Rotationally invariant grid construction     ... off

Total number of grid points                  ...    11298
Total number of batches                      ...      181
Average number of points per batch           ...       62
Average number of grid points per atom       ...     1255
UseSFitting                                  ... on

GRIDX 3
-------
General Integration Accuracy     IntAcc      ... 4.338
Radial Grid Type                 RadialGrid  ... OptM3 with GC (2021)
Angular Grid (max. ang.)         AngularGrid ... 3 (Lebedev-194)
Angular grid pruning method      GridPruning ... 4 (adaptive)
Weight generation scheme         WeightScheme... Becke
Basis function cutoff            BFCut       ... 1.0000e-10
Integration weight cutoff        WCut        ... 1.0000e-14
Angular grids for H and He will be reduced by one unit
Partially contracted basis set               ... on
Rotationally invariant grid construction     ... off

Total number of grid points                  ...    24869
Total number of batches                      ...      392
Average number of points per batch           ...       63
Average number of grid points per atom       ...     2763
UseSFitting                                  ... on

Time for X-Grid setup             =    0.132 sec


--------------------
CPCM SOLVATION MODEL
--------------------
CPCM parameters:
  Epsilon                                         ...      24.3000
  Refrac                                          ...       1.3610
  Rsolv                                           ...       1.3000
  Surface type                                    ... GAUSSIAN VDW
  Epsilon function type                           ...         CPCM
Radii:
 Radius for C  used is    3.8550 Bohr (=   2.0400 Ang.)
 Radius for O  used is    3.4469 Bohr (=   1.8240 Ang.)
 Radius for N  used is    3.5149 Bohr (=   1.8600 Ang.)
 Radius for H  used is    2.4944 Bohr (=   1.3200 Ang.)
Calculating surface                               ...        done! (  0.0s)
GEPOL surface points                              ...          573
GEPOL Volume                                      ...     550.3261
GEPOL Surface-area                                ...     360.3742
Calculating surface distance matrix               ...        done! (  0.0s)
Performing Cholesky decomposition & store         ...        done! (  0.0s)
Overall time for CPCM initialization              ...                 0.0s
--------------
SCF ITERATIONS
--------------
ITER       Energy         Delta-E        Max-DP      RMS-DP      [F,P]     Damp
               ***  Starting incremental Fock matrix formation  ***
                      *** Initiating the SOSCF procedure ***
                      *** Re-Reading the Fockian *** 
                      *** Removing any level shift *** 
ITER      Energy       Delta-E        Grad      Rot      Max-DP    RMS-DP
  0   -209.19121502 -209.1912150233  0.000302  0.000302  0.000531  0.000014
               *** Restarting incremental Fock matrix formation ***
  1   -209.19121653  -0.0000015053  0.000128  0.000141  0.000356  0.000010
  2   -209.19121643   0.0000000937  0.000204  0.000336  0.000229  0.000005
  3   -209.19121687  -0.0000004317  0.000032  0.000093  0.000065  0.000002
  4   -209.19121686   0.0000000032  0.000027  0.000020  0.000030  0.000001
                 **** Energy Check signals convergence ****
              ***Rediagonalizing the Fockian in SOSCF/NRSCF***

               *****************************************************
               *                     SUCCESS                       *
               *           SCF CONVERGED AFTER   5 CYCLES          *
               *****************************************************

Old exchange energy                            =     -5.397855603 Eh
New exchange energy                            =     -5.397860671 Eh
Exchange energy change after final integration =     -0.000005068 Eh
Total energy after final integration           =   -209.191221946 Eh
Final COS-X integration done in                =     0.565 sec

----------------
TOTAL SCF ENERGY
----------------

Total Energy       :         -209.19122195 Eh           -5692.38254 eV

Components:
Nuclear Repulsion  :          121.49739739 Eh            3306.11226 eV
Electronic Energy  :         -330.68861933 Eh           -8998.49481 eV
One Electron Energy:         -524.32982411 Eh          -14267.73987 eV
Two Electron Energy:          193.64120478 Eh            5269.24507 eV
Max COSX asymmetry :            0.00000063 Eh               0.00002 eV
CPCM Dielectric    :           -0.01593025 Eh              -0.43348 eV

Virial components:
Potential Energy   :         -417.48362291 Eh          -11360.30693 eV
Kinetic Energy     :          208.29240096 Eh            5667.92438 eV
Virial Ratio       :            2.00431519


DFT components:
N(Alpha)           :       15.999998767076 electrons
N(Beta)            :       15.999998767076 electrons
N(Total)           :       31.999997534151 electrons
E(X)               :      -21.475661709008 Eh       
E(C)               :       -1.275570864272 Eh       
E(XC)              :      -22.751232573281 Eh       
DFET-embed. en.    :        0.000000000000 Eh       
CPCM Solvation Model Properties:
Surface-charge          :           -0.01748754
Charge-correction       :           -0.00014250 Eh              -0.00388 eV
Free-energy (cav+disp)  :  This term is not implemented in the current solvation scheme

---------------
SCF CONVERGENCE
---------------

  Last Energy change         ...   -1.4477e-08  Tolerance :   1.0000e-06
  Last MAX-Density change    ...    1.6653e-15  Tolerance :   1.0000e-05
  Last RMS-Density change    ...    2.0117e-17  Tolerance :   1.0000e-06
  Last Orbital Gradient      ...    6.0398e-06  Tolerance :   5.0000e-05
  Last Orbital Rotation      ...    1.1861e-05  Tolerance :   5.0000e-05

             **** THE GBW FILE WAS UPDATED (nmr.gbw) ****
             **** DENSITY nmr.scfp WAS UPDATED ****
             **** ENERGY FILE WAS UPDATED (nmr.en.tmp) ****
             **** THE GBW FILE WAS UPDATED (nmr.gbw) ****
             **** DENSITY nmr.scfp WAS UPDATED ****
----------------
ORBITAL ENERGIES
----------------

  NO   OCC          E(Eh)            E(eV) 
   0   2.0000     -19.098393      -519.6937 
   1   2.0000     -14.341098      -390.2411 
   2   2.0000     -10.267435      -279.3911 
   3   2.0000     -10.194230      -277.3991 
   4   2.0000      -1.043924       -28.4066 
   5   2.0000      -0.922363       -25.0988 
   6   2.0000      -0.712187       -19.3796 
   7   2.0000      -0.588914       -16.0252 
   8   2.0000      -0.542945       -14.7743 
   9   2.0000      -0.463037       -12.5999 
  10   2.0000      -0.449215       -12.2238 
  11   2.0000      -0.421514       -11.4700 
  12   2.0000      -0.389588       -10.6012 
  13   2.0000      -0.388379       -10.5683 
  14   2.0000      -0.270500        -7.3607 
  15   2.0000      -0.262665        -7.1475 
  16   0.0000       0.017126         0.4660 
  17   0.0000       0.049155         1.3376 
  18   0.0000       0.073214         1.9922 
  19   0.0000       0.100268         2.7284 
  20   0.0000       0.123204         3.3526 
  21   0.0000       0.127385         3.4663 
  22   0.0000       0.135711         3.6929 
  23   0.0000       0.175680         4.7805 
  24   0.0000       0.184327         5.0158 
  25   0.0000       0.188052         5.1172 
  26   0.0000       0.252108         6.8602 
  27   0.0000       0.262056         7.1309 
  28   0.0000       0.294822         8.0225 
  29   0.0000       0.326185         8.8760 
  30   0.0000       0.348988         9.4964 
  31   0.0000       0.368795        10.0354 
  32   0.0000       0.395774        10.7695 
  33   0.0000       0.405471        11.0334 
  34   0.0000       0.418827        11.3969 
  35   0.0000       0.446679        12.1547 
  36   0.0000       0.451695        12.2912 
  37   0.0000       0.488363        13.2890 
  38   0.0000       0.502200        13.6655 
  39   0.0000       0.512943        13.9579 
  40   0.0000       0.524800        14.2805 
  41   0.0000       0.536843        14.6082 
  42   0.0000       0.582549        15.8520 
  43   0.0000       0.596631        16.2352 
  44   0.0000       0.637596        17.3499 
  45   0.0000       0.639596        17.4043 
  46   0.0000       0.709130        19.2964 
  47   0.0000       0.734601        19.9895 
  48   0.0000       0.798989        21.7416 
  49   0.0000       0.822945        22.3935 
  50   0.0000       0.870103        23.6767 
  51   0.0000       0.908215        24.7138 
  52   0.0000       0.912265        24.8240 
  53   0.0000       0.938585        25.5402 
  54   0.0000       0.970057        26.3966 
  55   0.0000       0.982635        26.7388 
  56   0.0000       1.006093        27.3772 
  57   0.0000       1.012501        27.5516 
  58   0.0000       1.050745        28.5922 
  59   0.0000       1.121399        30.5148 
  60   0.0000       1.148478        31.2517 
  61   0.0000       1.179040        32.0833 
  62   0.0000       1.228981        33.4423 
  63   0.0000       1.242239        33.8030 
  64   0.0000       1.261437        34.3255 
  65   0.0000       1.351636        36.7799 
  66   0.0000       1.380020        37.5523 
  67   0.0000       1.399135        38.0724 
  68   0.0000       1.425639        38.7936 
  69   0.0000       1.426440        38.8154 
  70   0.0000       1.435740        39.0685 
  71   0.0000       1.437840        39.1256 
  72   0.0000       1.454441        39.5773 
  73   0.0000       1.501617        40.8611 
  74   0.0000       1.515278        41.2328 
  75   0.0000       1.547102        42.0988 
  76   0.0000       1.606998        43.7286 
  77   0.0000       1.652514        44.9672 
  78   0.0000       1.695685        46.1419 
  79   0.0000       1.717185        46.7270 
  80   0.0000       1.827304        49.7235 
  81   0.0000       1.923121        52.3308 
  82   0.0000       1.958399        53.2907 
  83   0.0000       1.979366        53.8613 
  84   0.0000       1.992609        54.2216 
  85   0.0000       2.065579        56.2073 
  86   0.0000       2.164699        58.9044 
  87   0.0000       2.225956        60.5714 
  88   0.0000       2.273423        61.8630 
  89   0.0000       2.295831        62.4727 
  90   0.0000       2.414581        65.7041 
  91   0.0000       2.524621        68.6984 
  92   0.0000       2.546520        69.2943 
  93   0.0000       2.591290        70.5126 
  94   0.0000       2.598617        70.7120 
  95   0.0000       2.619874        71.2904 
  96   0.0000       2.726529        74.1926 
  97   0.0000       2.731943        74.3399 
  98   0.0000       2.769842        75.3712 
  99   0.0000       2.796014        76.0834 
 100   0.0000       2.816550        76.6422 
 101   0.0000       2.841144        77.3115 
 102   0.0000       2.868330        78.0512 
 103   0.0000       2.895531        78.7914 
 104   0.0000       2.913299        79.2749 
 105   0.0000       2.935120        79.8687 
 106   0.0000       2.970266        80.8251 
 107   0.0000       2.986867        81.2768 
 108   0.0000       3.007230        81.8309 
 109   0.0000       3.010291        81.9142 
 110   0.0000       3.114250        84.7430 
 111   0.0000       3.157470        85.9191 
 112   0.0000       3.160584        86.0039 
 113   0.0000       3.208284        87.3018 
 114   0.0000       3.216173        87.5165 
 115   0.0000       3.313529        90.1657 
 116   0.0000       3.321418        90.3804 
 117   0.0000       3.325782        90.4991 
 118   0.0000       3.344920        91.0199 
 119   0.0000       3.419119        93.0390 
 120   0.0000       3.439435        93.5918 
 121   0.0000       3.447917        93.8226 
 122   0.0000       3.482637        94.7674 
 123   0.0000       3.526591        95.9634 
 124   0.0000       3.559038        96.8464 
 125   0.0000       3.573848        97.2494 
 126   0.0000       3.657154        99.5162 
 127   0.0000       3.669616        99.8553 
 128   0.0000       3.677062       100.0580 
 129   0.0000       3.752044       102.0983 
 130   0.0000       3.772228       102.6476 
 131   0.0000       3.778736       102.8246 
 132   0.0000       3.826931       104.1361 
 133   0.0000       3.868187       105.2587 
 134   0.0000       3.913421       106.4896 
 135   0.0000       3.936363       107.1139 
 136   0.0000       3.968593       107.9909 
 137   0.0000       4.040308       109.9424 
 138   0.0000       4.063401       110.5708 
 139   0.0000       4.090407       111.3056 
 140   0.0000       4.094788       111.4248 
 141   0.0000       4.102760       111.6418 
 142   0.0000       4.213286       114.6493 
 143   0.0000       4.226472       115.0082 
 144   0.0000       4.259591       115.9094 
 145   0.0000       4.270360       116.2024 
 146   0.0000       4.362676       118.7145 
 147   0.0000       4.405001       119.8662 
 148   0.0000       4.429639       120.5366 
 149   0.0000       4.509516       122.7102 
 150   0.0000       4.607851       125.3860 
 151   0.0000       4.626628       125.8969 
 152   0.0000       4.671833       127.1270 
 153   0.0000       4.727065       128.6300 
 154   0.0000       4.730739       128.7300 
 155   0.0000       4.802983       130.6958 
 156   0.0000       4.866136       132.4143 
 157   0.0000       4.884591       132.9165 
 158   0.0000       4.999678       136.0481 
 159   0.0000       5.073884       138.0674 
 160   0.0000       5.098858       138.7470 
 161   0.0000       5.118201       139.2733 
 162   0.0000       5.153340       140.2295 
 163   0.0000       5.205726       141.6550 
 164   0.0000       5.226110       142.2097 
 165   0.0000       5.266756       143.3157 
 166   0.0000       5.288761       143.9145 
 167   0.0000       5.309517       144.4793 
 168   0.0000       5.348324       145.5353 
 169   0.0000       5.355243       145.7236 
 170   0.0000       5.368477       146.0837 
 171   0.0000       5.458733       148.5397 
 172   0.0000       5.489637       149.3806 
 173   0.0000       5.566463       151.4712 
 174   0.0000       5.568880       151.5369 
 175   0.0000       5.607095       152.5768 
 176   0.0000       5.660343       154.0258 
 177   0.0000       5.851973       159.2403 
 178   0.0000       5.877882       159.9453 
 179   0.0000       6.068723       165.1384 
 180   0.0000       6.157591       167.5566 
 181   0.0000       6.218608       169.2169 
 182   0.0000       6.375171       173.4772 
 183   0.0000       6.422255       174.7585 
 184   0.0000       6.501471       176.9140 
 185   0.0000       6.562771       178.5821 
 186   0.0000       6.796087       184.9309 
 187   0.0000       6.952056       189.1751 
 188   0.0000       7.083136       192.7419 
 189   0.0000       7.214470       196.3157 
 190   0.0000      23.570179       641.3772 
 191   0.0000      23.618544       642.6932 
 192   0.0000      32.855657       894.0479 
 193   0.0000      43.774944      1191.1768 

                    ********************************
                    * MULLIKEN POPULATION ANALYSIS *
                    ********************************

-----------------------
MULLIKEN ATOMIC CHARGES
-----------------------
   0 C :    0.173210
   1 O :   -0.454557
   2 N :   -0.187306
   3 C :   -0.175791
   4 H :    0.097046
   5 H :    0.195545
   6 H :    0.108783
   7 H :    0.121275
   8 H :    0.121793
Sum of atomic charges:   -0.0000000

--------------------------------
MULLIKEN REDUCED ORBITAL CHARGES
--------------------------------
  0 C s       :     3.132551  s :     3.132551
      pz      :     0.890291  p :     2.470710
      px      :     0.787347
      py      :     0.793072
      dz2     :     0.057204  d :     0.203840
      dxz     :     0.043016
      dyz     :     0.026239
      dx2y2   :     0.028292
      dxy     :     0.049088
      f0      :     0.003545  f :     0.019689
      f+1     :     0.003350
      f-1     :     0.001640
      f+2     :     0.004110
      f-2     :     0.002076
      f+3     :     0.001983
      f-3     :     0.002984
  1 O s       :     3.804003  s :     3.804003
      pz      :     1.499409  p :     4.620796
      px      :     1.635182
      py      :     1.486205
      dz2     :     0.006996  d :     0.028032
      dxz     :     0.007213
      dyz     :     0.005361
      dx2y2   :     0.003929
      dxy     :     0.004535
      f0      :     0.000272  f :     0.001726
      f+1     :     0.000412
      f-1     :     0.000122
      f+2     :     0.000337
      f-2     :     0.000355
      f+3     :     0.000127
      f-3     :     0.000101
  2 N s       :     3.438521  s :     3.438521
      pz      :     1.147041  p :     3.693581
      px      :     1.038756
      py      :     1.507783
      dz2     :     0.010398  d :     0.051662
      dxz     :     0.016134
      dyz     :     0.005905
      dx2y2   :     0.007553
      dxy     :     0.011672
      f0      :     0.000428  f :     0.003543
      f+1     :     0.000474
      f-1     :     0.000379
      f+2     :     0.000722
      f-2     :     0.000316
      f+3     :     0.000514
      f-3     :     0.000708
  3 C s       :     3.226981  s :     3.226981
      pz      :     0.858144  p :     2.867672
      px      :     0.977642
      py      :     1.031886
      dz2     :     0.016416  d :     0.074863
      dxz     :     0.018358
      dyz     :     0.015324
      dx2y2   :     0.004544
      dxy     :     0.020220
      f0      :     0.001058  f :     0.006275
      f+1     :     0.001320
      f-1     :     0.000672
      f+2     :     0.000970
      f-2     :     0.001422
      f+3     :     0.000580
      f-3     :     0.000253
  4 H s       :     0.871964  s :     0.871964
      pz      :     0.014906  p :     0.029108
      px      :     0.006408
      py      :     0.007794
      dz2     :     0.000496  d :     0.001881
      dxz     :     0.000614
      dyz     :     0.000366
      dx2y2   :     0.000204
      dxy     :     0.000201
  5 H s       :     0.740786  s :     0.740786
      pz      :     0.021784  p :     0.058631
      px      :     0.012908
      py      :     0.023939
      dz2     :     0.001493  d :     0.005038
      dxz     :     0.001087
      dyz     :     0.001222
      dx2y2   :     0.000548
      dxy     :     0.000687
  6 H s       :     0.855591  s :     0.855591
      pz      :     0.011428  p :     0.033842
      px      :     0.012101
      py      :     0.010313
      dz2     :     0.000682  d :     0.001785
      dxz     :     0.000142
      dyz     :     0.000377
      dx2y2   :     0.000241
      dxy     :     0.000342
  7 H s       :     0.846708  s :     0.846708
      pz      :     0.008824  p :     0.030346
      px      :     0.010068
      py      :     0.011455
      dz2     :     0.000073  d :     0.001670
      dxz     :     0.000366
      dyz     :     0.000440
      dx2y2   :     0.000619
      dxy     :     0.000172
  8 H s       :     0.846190  s :     0.846190
      pz      :     0.008806  p :     0.030348
      px      :     0.010136
      py      :     0.011407
      dz2     :     0.000275  d :     0.001669
      dxz     :     0.000363
      dyz     :     0.000254
      dx2y2   :     0.000603
      dxy     :     0.000173


                     *******************************
                     * LOEWDIN POPULATION ANALYSIS *
                     *******************************

----------------------
LOEWDIN ATOMIC CHARGES
----------------------
   0 C :   -0.330939
   1 O :   -0.000829
   2 N :    0.310196
   3 C :   -0.005510
   4 H :    0.004685
   5 H :   -0.013735
   6 H :    0.011743
   7 H :    0.012087
   8 H :    0.012302

-------------------------------
LOEWDIN REDUCED ORBITAL CHARGES
-------------------------------
  0 C s       :     2.767719  s :     2.767719
      pz      :     0.955867  p :     2.666680
      px      :     0.931476
      py      :     0.779338
      dz2     :     0.192036  d :     0.780101
      dxz     :     0.193676
      dyz     :     0.082216
      dx2y2   :     0.144440
      dxy     :     0.167733
      f0      :     0.022816  f :     0.116440
      f+1     :     0.019603
      f-1     :     0.010848
      f+2     :     0.023171
      f-2     :     0.014082
      f+3     :     0.011523
      f-3     :     0.014397
  1 O s       :     3.405802  s :     3.405802
      pz      :     1.530224  p :     4.522742
      px      :     1.582600
      py      :     1.409918
      dz2     :     0.016597  d :     0.066257
      dxz     :     0.020631
      dyz     :     0.011213
      dx2y2   :     0.009308
      dxy     :     0.008508
      f0      :     0.000852  f :     0.006027
      f+1     :     0.001523
      f-1     :     0.000553
      f+2     :     0.001187
      f-2     :     0.001165
      f+3     :     0.000356
      f-3     :     0.000391
  2 N s       :     2.878236  s :     2.878236
      pz      :     1.141046  p :     3.580090
      px      :     1.137164
      py      :     1.301880
      dz2     :     0.046904  d :     0.217462
      dxz     :     0.073811
      dyz     :     0.021237
      dx2y2   :     0.038042
      dxy     :     0.037468
      f0      :     0.002635  f :     0.014016
      f+1     :     0.001824
      f-1     :     0.001464
      f+2     :     0.002913
      f-2     :     0.001191
      f+3     :     0.002058
      f-3     :     0.001931
  3 C s       :     2.710723  s :     2.710723
      pz      :     0.904413  p :     2.903753
      px      :     0.982178
      py      :     1.017162
      dz2     :     0.068091  d :     0.345609
      dxz     :     0.095460
      dyz     :     0.065721
      dx2y2   :     0.022879
      dxy     :     0.093458
      f0      :     0.008251  f :     0.045425
      f+1     :     0.008549
      f-1     :     0.006161
      f+2     :     0.007696
      f-2     :     0.006903
      f+3     :     0.005145
      f-3     :     0.002720
  4 H s       :     0.836186  s :     0.836186
      pz      :     0.069205  p :     0.132757
      px      :     0.029928
      py      :     0.033624
      dz2     :     0.008725  d :     0.026373
      dxz     :     0.007187
      dyz     :     0.006708
      dx2y2   :     0.001777
      dxy     :     0.001976
  5 H s       :     0.711945  s :     0.711945
      pz      :     0.095264  p :     0.241445
      px      :     0.057476
      py      :     0.088705
      dz2     :     0.017623  d :     0.060346
      dxz     :     0.014597
      dyz     :     0.014560
      dx2y2   :     0.006159
      dxy     :     0.007406
  6 H s       :     0.806885  s :     0.806885
      pz      :     0.050532  p :     0.151519
      px      :     0.057930
      py      :     0.043057
      dz2     :     0.007493  d :     0.029853
      dxz     :     0.007894
      dyz     :     0.005331
      dx2y2   :     0.003798
      dxy     :     0.005337
  7 H s       :     0.813710  s :     0.813710
      pz      :     0.035918  p :     0.145216
      px      :     0.048747
      py      :     0.060551
      dz2     :     0.003041  d :     0.028987
      dxz     :     0.003796
      dyz     :     0.005179
      dx2y2   :     0.009092
      dxy     :     0.007879
  8 H s       :     0.813511  s :     0.813511
      pz      :     0.041187  p :     0.145188
      px      :     0.049177
      py      :     0.054824
      dz2     :     0.003810  d :     0.028998
      dxz     :     0.004391
      dyz     :     0.005978
      dx2y2   :     0.007453
      dxy     :     0.007366


                      *****************************
                      * MAYER POPULATION ANALYSIS *
                      *****************************

  NA   - Mulliken gross atomic population
  ZA   - Total nuclear charge
  QA   - Mulliken gross atomic charge
  VA   - Mayer's total valence
  BVA  - Mayer's bonded valence
  FA   - Mayer's free valence

  ATOM       NA         ZA         QA         VA         BVA        FA
  0 C      5.8268     6.0000     0.1732     4.1984     4.1984     0.0000
  1 O      8.4546     8.0000    -0.4546     2.0373     2.0373     0.0000
  2 N      7.1873     7.0000    -0.1873     3.0890     3.0890    -0.0000
  3 C      6.1758     6.0000    -0.1758     3.8214     3.8214    -0.0000
  4 H      0.9030     1.0000     0.0970     0.9939     0.9939     0.0000
  5 H      0.8045     1.0000     0.1955     0.9901     0.9901    -0.0000
  6 H      0.8912     1.0000     0.1088     1.0218     1.0218    -0.0000
  7 H      0.8787     1.0000     0.1213     0.9858     0.9858     0.0000
  8 H      0.8782     1.0000     0.1218     0.9859     0.9859     0.0000

  Mayer bond orders larger than 0.100000
B(  0-C ,  1-O ) :   1.9208 B(  0-C ,  2-N ) :   1.2602 B(  0-C ,  4-H ) :   0.9792 
B(  2-N ,  3-C ) :   0.8788 B(  2-N ,  5-H ) :   0.9509 B(  3-C ,  6-H ) :   0.9716 
B(  3-C ,  7-H ) :   0.9737 B(  3-C ,  8-H ) :   0.9738 

-------
TIMINGS
-------

Total SCF time: 0 days 0 hours 0 min 3 sec 

Total time                  ....       3.529 sec
Sum of individual times     ....       3.418 sec  ( 96.9%)

Fock matrix formation       ....       3.062 sec  ( 86.7%)
  Split-RI-J                ....       0.238 sec  (  7.8% of F)
  Chain of spheres X        ....       2.053 sec  ( 67.1% of F)
  XC integration            ....       0.290 sec  (  9.5% of F)
    Basis function eval.    ....       0.081 sec  ( 28.1% of XC)
    Density eval.           ....       0.077 sec  ( 26.7% of XC)
    XC-Functional eval.     ....       0.011 sec  (  3.8% of XC)
    XC-Potential eval.      ....       0.094 sec  ( 32.4% of XC)
Diagonalization             ....       0.007 sec  (  0.2%)
Density matrix formation    ....       0.005 sec  (  0.1%)
Population analysis         ....       0.008 sec  (  0.2%)
Initial guess               ....       0.009 sec  (  0.3%)
Orbital Transformation      ....       0.000 sec  (  0.0%)
Orbital Orthonormalization  ....       0.005 sec  (  0.1%)
DIIS solution               ....       0.004 sec  (  0.1%)
SOSCF solution              ....       0.025 sec  (  0.7%)
Grid generation             ....       0.298 sec  (  8.5%)

Maximum memory used throughout the entire SCF-calculation: 65.8 MB

-------------------------   --------------------
FINAL SINGLE POINT ENERGY      -209.191221945552
-------------------------   --------------------


                            ***************************************
                            *     ORCA property calculations      *
                            ***************************************

                                    ---------------------
                                    Active property flags
                                    ---------------------
   (+) Dipole Moment
   (+) Chemical Shifts
   (+) Nuclear properties (Hyperfine,Quadrupole)


------------------------------------------------------------------------------
                       ORCA ELECTRIC PROPERTIES CALCULATION
------------------------------------------------------------------------------

Dipole Moment Calculation                       ... on
Quadrupole Moment Calculation                   ... off
Polarizability Calculation                      ... off
GBWName                                         ... nmr.gbw
Electron density                                ... nmr.scfp
The origin for moment calculation is the CENTER OF MASS  = ( 3.457010,  0.396847  1.091441)

-------------
DIPOLE MOMENT
-------------
                                X             Y             Z
Electronic contribution:     -2.82245      -0.41095      -1.03077
Nuclear contribution   :      4.57049      -0.01047       0.03665
                        -----------------------------------------
Total Dipole Moment    :      1.74804      -0.42142      -0.99413
                        -----------------------------------------
Magnitude (a.u.)       :      2.05464
Magnitude (Debye)      :      5.22247



--------------------
Rotational spectrum 
--------------------
 
Rotational constants in cm-1:     0.670970     0.203217     0.160703 
Rotational constants in MHz : 20115.165183  6092.288033  4817.767292 

 Dipole components along the rotational axes: 
x,y,z [a.u.] :     1.594409    -1.295913     0.001830 
x,y,z [Debye]:     4.052665    -3.293949     0.004652 

 


           ************************************************************
           *        Program running with 8 parallel MPI-processes     *
           *              working on a common directory               *
           ************************************************************
------------------------------------------------------------------------------
                                ORCA EPR/NMR CALCULATION
------------------------------------------------------------------------------

GBWName                      ... nmr.gbw
Electron density             ... nmr.scfp
Spin density                 ... nmr.scfr
Treatment of gauge           ... GIAO (approximations 1/2el = 0,0)
Details of the CP(SCF) procedure:
       Solver   = POPLE   
       MaxIter  =    64   
       Tolerance=    1.000e-03
       COSX Grid=     1   
       Op-0     =   0- 15 =>  16-193
Multiplicity                 ... 1
g-tensor                     ... 0
NMR chemical shifts          ... 1
NMR spin-spin couplings      ... 0
NMR spectrum                 ... 0
Number of nuclei for epr/nmr ... 9
   Nucleus:   4H 
       Hyperfine : Isotope=    0 I=   0.000 P=   0.000
       Quadrupole: Isotope=    0 I=   0.000 Q=   0.000
       Spin-Orbit: Zeff=   1.000
       Nuclear Spin-Spin: Gn=   0.000
       EPRNMR Input: 
       rho(0)=N f(grad)=N a(iso)=N a(dip)=N a(orb)=N sigma(nmr)=Y spin-spin(nmr)=all-N,DSO-N,PSO-N,FC-N,SD-N
   Nucleus:   5H 
       Hyperfine : Isotope=    0 I=   0.000 P=   0.000
       Quadrupole: Isotope=    0 I=   0.000 Q=   0.000
       Spin-Orbit: Zeff=   1.000
       Nuclear Spin-Spin: Gn=   0.000
       EPRNMR Input: 
       rho(0)=N f(grad)=N a(iso)=N a(dip)=N a(orb)=N sigma(nmr)=Y spin-spin(nmr)=all-N,DSO-N,PSO-N,FC-N,SD-N
   Nucleus:   6H 
       Hyperfine : Isotope=    0 I=   0.000 P=   0.000
       Quadrupole: Isotope=    0 I=   0.000 Q=   0.000
       Spin-Orbit: Zeff=   1.000
       Nuclear Spin-Spin: Gn=   0.000
       EPRNMR Input: 
       rho(0)=N f(grad)=N a(iso)=N a(dip)=N a(orb)=N sigma(nmr)=Y spin-spin(nmr)=all-N,DSO-N,PSO-N,FC-N,SD-N
   Nucleus:   7H 
       Hyperfine : Isotope=    0 I=   0.000 P=   0.000
       Quadrupole: Isotope=    0 I=   0.000 Q=   0.000
       Spin-Orbit: Zeff=   1.000
       Nuclear Spin-Spin: Gn=   0.000
       EPRNMR Input: 
       rho(0)=N f(grad)=N a(iso)=N a(dip)=N a(orb)=N sigma(nmr)=Y spin-spin(nmr)=all-N,DSO-N,PSO-N,FC-N,SD-N
   Nucleus:   8H 
       Hyperfine : Isotope=    0 I=   0.000 P=   0.000
       Quadrupole: Isotope=    0 I=   0.000 Q=   0.000
       Spin-Orbit: Zeff=   1.000
       Nuclear Spin-Spin: Gn=   0.000
       EPRNMR Input: 
       rho(0)=N f(grad)=N a(iso)=N a(dip)=N a(orb)=N sigma(nmr)=Y spin-spin(nmr)=all-N,DSO-N,PSO-N,FC-N,SD-N
   Nucleus:   0C 
       Hyperfine : Isotope=    0 I=   0.000 P=   0.000
       Quadrupole: Isotope=    0 I=   0.000 Q=   0.000
       Spin-Orbit: Zeff=   3.600
       Nuclear Spin-Spin: Gn=   0.000
       EPRNMR Input: 
       rho(0)=N f(grad)=N a(iso)=N a(dip)=N a(orb)=N sigma(nmr)=Y spin-spin(nmr)=all-N,DSO-N,PSO-N,FC-N,SD-N
   Nucleus:   3C 
       Hyperfine : Isotope=    0 I=   0.000 P=   0.000
       Quadrupole: Isotope=    0 I=   0.000 Q=   0.000
       Spin-Orbit: Zeff=   3.600
       Nuclear Spin-Spin: Gn=   0.000
       EPRNMR Input: 
       rho(0)=N f(grad)=N a(iso)=N a(dip)=N a(orb)=N sigma(nmr)=Y spin-spin(nmr)=all-N,DSO-N,PSO-N,FC-N,SD-N
   Nucleus:   2N 
       Hyperfine : Isotope=    0 I=   0.000 P=   0.000
       Quadrupole: Isotope=    0 I=   0.000 Q=   0.000
       Spin-Orbit: Zeff=   4.550
       Nuclear Spin-Spin: Gn=   0.000
       EPRNMR Input: 
       rho(0)=N f(grad)=N a(iso)=N a(dip)=N a(orb)=N sigma(nmr)=Y spin-spin(nmr)=all-N,DSO-N,PSO-N,FC-N,SD-N
   Nucleus:   1O 
       Hyperfine : Isotope=    0 I=   0.000 P=   0.000
       Quadrupole: Isotope=    0 I=   0.000 Q=   0.000
       Spin-Orbit: Zeff=   5.600
       Nuclear Spin-Spin: Gn=   0.000
       EPRNMR Input: 
       rho(0)=N f(grad)=N a(iso)=N a(dip)=N a(orb)=N sigma(nmr)=Y spin-spin(nmr)=all-N,DSO-N,PSO-N,FC-N,SD-N
Forming RHS of the CP-SCF equations         ... 
Calculating right hand sides for GIAO treatment        ... 
  Entering RightHandSide GIAO. ScalHFX=    0.2000 NeedHFX=1
     -> 1-electron GIAO integrals will be done analytically
     -> RIJCOSX used in SCF. Same chosen for GIAO calculation.
     Making grid for GIAO integrations   ...

GRID GIAO
---------

General Integration Accuracy     IntAcc      ... 4.388
Radial Grid Type                 RadialGrid  ... OptM3 with GC (2021)
Angular Grid (max. ang.)         AngularGrid ... 4 (Lebedev-302)
Angular grid pruning method      GridPruning ... 4 (adaptive)
Weight generation scheme         WeightScheme... Becke
Basis function cutoff            BFCut       ... 1.0000e-10
Integration weight cutoff        WCut        ... 1.0000e-14
Angular grids for H and He will be reduced by one unit
Partially contracted basis set               ... off
Rotationally invariant grid construction     ... off

Total number of grid points                  ...    40583
Total number of batches                      ...      640
Average number of points per batch           ...       63
Average number of grid points per atom       ...     4509

  One-electron GIAO integrals (SHARK)     ... done
  Calculating G(B)[P]                     ... (RI-J: SHARK-ok) (COSX-ok) (add-J+K:ok) => dG/dB done
  DFT XC-terms                            ... done
  Forming the GIAO-CPCM matrix            ... done (epsilon= 24.30 f(epsilon)= 0.958848)
  Extracting occupied and virtual blocks  ... 
  Operator  0  NO=  16 NV= 178 
  Transforming and RHS contribution       ... done
  Adding eps_i * S(B)_ai terms            ... done
  Projecting overlap derivatives          ... done
  Building G[dS/dB_ij] (COSX)             ... done
  Transforming to MO basis                ... done
  Summing G[dS/dB_ij] into RHS contribs.  ... done

  GIAO profiling information: 
    Total GIAO time               ...       2.2 sec
       GIAO 1-electron integrals  ...       0.0 sec (  0.6%)
       GIAO G(dS/dB) terms        ...       0.1 sec (  5.8%)
       GIAO RI-J                  ...       0.1 sec (  5.9%)
       GIAO COSX                  ...       0.4 sec ( 17.3%)
       GIAO XC-terms              ...       0.9 sec ( 39.6%)
       GIAO Solvent terms         ...       0.5 sec ( 22.7%)
       Right hand side assembly   ...       0.0 sec (  0.2%)

  GIAO right hand side done


------------------------------------------------------------------------------
                           ORCA CP-SCF CALCULATION
------------------------------------------------------------------------------

Input orbitals are from        ... nmr.gbw
Input Perturbation             ... nmr.pin.tmp
Wavefunction output            ... nmr.pout.tmp
Perturbation mode              ... Imaginary perturbation
Solver                         ... POPLE
Max. number of iterations      ... 64
Convergence tolerance          ... 1.000e-03
Integral handling              ... Direct
DFT GridXC                     ... 1
COSX GridX                     ... 1
COSX IntAccX                   ... 3.067
COSX Algorithm                 ... Auto
Number of perturbations        ... 3
Number of operators            ... 1
Orbital ranges used for CP-SCF:
 Operator 0:  Orbitals   0... 15  to  16...193
Variables per perturbation     ... 2848
DFT calculation                         ... on
XC functional terms                     ... off
Hybrid DFT                              ... on
   Exchange mixing (SCF)                ...  0.200
   Exchange mixing (CP-SCF)             ...  0.200
   GGA exch. scaling(SCF)               ...  0.720
   GGA exch. scaling (CP-SCF)           ...  0.720
   GGA corr. scaling (SCF)              ...  0.810
   GGA corr. scaling (CP-SCF)           ...  0.810

CP-SCF GRID
-----------

General Integration Accuracy     IntAcc      ... 3.467
Radial Grid Type                 RadialGrid  ... OptM3 with GC (2021)
Angular Grid (max. ang.)         AngularGrid ... 1 (Lebedev-50)
Angular grid pruning method      GridPruning ... 4 (adaptive)
Weight generation scheme         WeightScheme... Becke
Basis function cutoff            BFCut       ... 1.0000e-10
Integration weight cutoff        WCut        ... 1.0000e-14
Angular grids for H and He will be reduced by one unit
Partially contracted basis set               ... off
Rotationally invariant grid construction     ... off

Total number of grid points                  ...     5874
Total number of batches                      ...       97
Average number of points per batch           ...       60
Average number of grid points per atom       ...      653

CP-SCF GRIDX
------------

General Integration Accuracy     IntAcc      ... 3.067
Radial Grid Type                 RadialGrid  ... OptM3 with GC (2021)
Angular Grid (max. ang.)         AngularGrid ... 1 (Lebedev-50)
Angular grid pruning method      GridPruning ... 4 (adaptive)
Weight generation scheme         WeightScheme... Becke
Basis function cutoff            BFCut       ... 1.0000e-10
Integration weight cutoff        WCut        ... 1.0000e-14
Angular grids for H and He will be reduced by one unit
Partially contracted basis set               ... on
Rotationally invariant grid construction     ... off

Total number of grid points                  ...     2708
Total number of batches                      ...       49
Average number of points per batch           ...       55
Average number of grid points per atom       ...      301

Memory available               ... 31985.1 MB
Memory needed per perturbation ...   1.3 MB
Perturbations treated per batch... 3
Number of batches              ... 1
     CP-SCF ITERATION   0:   3.2778e-01 (   0.1 sec   0/  3 done)
     CP-SCF ITERATION   1:   1.4034e-02 (   0.1 sec   0/  3 done)
     CP-SCF ITERATION   2:   8.6786e-04 (   0.1 sec   3/  3 done)
                    *** THE CP-SCF HAS CONVERGED ***

Forming final perturbed densities           ... done
Transforming perturbed density to AO basis  ... done

Magnetic field perturbation calculated in  2.676 sec

---------------
CHEMICAL SHIFTS
---------------

Note: using conversion factor for au to ppm alpha^2/2 =   26.625677252 
GIAO: Analytic para- and diamagnetic shielding integrals (SHARK)       ...done
 --------------
 Nucleus   4H :
 --------------

Diamagnetic contribution to the shielding tensor (ppm) : 
            28.471          1.761         4.073
             1.996         28.225         4.819
             4.833          4.904        37.735

Paramagnetic contribution to the shielding tensor (ppm): 
            -3.506         -2.320        -5.380
            -0.687         -7.859        -2.821
            -1.645         -2.922       -13.408

Total shielding tensor (ppm): 
            24.965         -0.559        -1.307
             1.310         20.366         1.998
             3.187          1.982        24.327


 Diagonalized sT*s matrix:
 
 sDSO            26.180           29.313           38.938  iso=      31.477
 sPSO            -6.641           -5.265          -12.867  iso=      -8.258
        ---------------  ---------------  ---------------
 Total           19.539           24.047           26.071  iso=      23.219

 --------------
 Nucleus   5H :
 --------------

Diamagnetic contribution to the shielding tensor (ppm) : 
            32.876         -2.834        -6.733
            -4.881         23.809         7.075
           -11.788          7.075        37.896

Paramagnetic contribution to the shielding tensor (ppm): 
            -5.121          2.737         6.584
             3.901         -1.185        -4.368
             9.462         -4.361        -9.860

Total shielding tensor (ppm): 
            27.756         -0.097        -0.149
            -0.981         22.625         2.707
            -2.326          2.714        28.037


 Diagonalized sT*s matrix:
 
 sDSO            20.869           26.084           47.629  iso=      31.527
 sPSO             0.631            0.855          -17.650  iso=      -5.388
        ---------------  ---------------  ---------------
 Total           21.501           26.938           29.978  iso=      26.139

 --------------
 Nucleus   6H :
 --------------

Diamagnetic contribution to the shielding tensor (ppm) : 
            29.222         -1.186        -2.869
            -0.337         22.366         5.350
            -0.849          5.308        33.502

Paramagnetic contribution to the shielding tensor (ppm): 
            -0.854          1.533         3.682
            -0.324          2.350        -2.914
            -0.816         -2.843        -3.619

Total shielding tensor (ppm): 
            28.368          0.347         0.812
            -0.661         24.716         2.436
            -1.665          2.465        29.883


 Diagonalized sT*s matrix:
 
 sDSO            20.228           28.697           36.167  iso=      28.364
 sPSO             3.511           -0.407           -5.228  iso=      -0.708
        ---------------  ---------------  ---------------
 Total           23.739           28.289           30.939  iso=      27.656

 --------------
 Nucleus   7H :
 --------------

Diamagnetic contribution to the shielding tensor (ppm) : 
            29.554          8.482         1.196
             9.954         28.563         0.835
             1.087          0.043        22.016

Paramagnetic contribution to the shielding tensor (ppm): 
            -0.281         -3.551        -0.159
            -4.270          2.903        -1.616
             0.187          0.462         5.117

Total shielding tensor (ppm): 
            29.274          4.931         1.037
             5.684         31.466        -0.781
             1.275          0.504        27.133


 Diagonalized sT*s matrix:
 
 sDSO            20.007           22.015           38.112  iso=      26.711
 sPSO             4.561            5.456           -2.278  iso=       2.580
        ---------------  ---------------  ---------------
 Total           24.569           27.471           35.833  iso=      29.291

 --------------
 Nucleus   8H :
 --------------

Diamagnetic contribution to the shielding tensor (ppm) : 
            29.716         -5.367         6.788
            -6.438         24.818        -3.528
             7.707         -2.831        25.513

Paramagnetic contribution to the shielding tensor (ppm): 
            -0.351          2.560        -2.625
             3.248          4.624         2.097
            -2.779          0.099         3.533

Total shielding tensor (ppm): 
            29.365         -2.807         4.163
            -3.190         29.442        -1.431
             4.927         -2.731        29.047


 Diagonalized sT*s matrix:
 
 sDSO            19.945           21.949           38.153  iso=      26.682
 sPSO             4.615            5.542           -2.351  iso=       2.602
        ---------------  ---------------  ---------------
 Total           24.560           27.491           35.802  iso=      29.284

 --------------
 Nucleus   0C :
 --------------

Diamagnetic contribution to the shielding tensor (ppm) : 
           265.721         -3.457        -8.206
            -2.766        234.323         9.262
            -6.364          9.323       252.424

Paramagnetic contribution to the shielding tensor (ppm): 
          -276.751        -17.944       -43.949
           -13.891       -158.430       -52.786
           -34.560        -52.843      -262.996

Total shielding tensor (ppm): 
           -11.030        -21.401       -52.155
           -16.657         75.894       -43.525
           -40.924        -43.519       -10.572


 Diagonalized sT*s matrix:
 
 sDSO           270.220          251.846          230.402  iso=     250.823
 sPSO          -241.278         -320.503         -136.395  iso=    -232.725
        ---------------  ---------------  ---------------
 Total           28.942          -68.657           94.007  iso=      18.097

 --------------
 Nucleus   3C :
 --------------

Diamagnetic contribution to the shielding tensor (ppm) : 
           243.951          3.465         8.531
             4.575        232.920         6.544
            11.473          6.392       246.237

Paramagnetic contribution to the shielding tensor (ppm): 
           -97.620          6.687        16.174
             4.474        -66.912        -5.372
            10.770         -5.284       -77.679

Total shielding tensor (ppm): 
           146.331         10.151        24.705
             9.049        166.008         1.172
            22.244          1.108       168.558


 Diagonalized sT*s matrix:
 
 sDSO           235.582          230.295          257.231  iso=     241.036
 sPSO          -105.697          -64.721          -71.793  iso=     -80.737
        ---------------  ---------------  ---------------
 Total          129.884          165.574          185.438  iso=     160.299

 --------------
 Nucleus   2N :
 --------------

Diamagnetic contribution to the shielding tensor (ppm) : 
           328.927          1.029         2.838
            -1.333        297.096        13.157
            -2.569         13.182       323.337

Paramagnetic contribution to the shielding tensor (ppm): 
          -132.787         24.855        59.534
             8.454       -152.369       -64.753
            20.285        -64.309      -280.611

Total shielding tensor (ppm): 
           196.140         25.884        62.372
             7.121        144.727       -51.597
            17.716        -51.127        42.726


 Diagonalized sT*s matrix:
 
 sDSO           328.778          291.626          328.955  iso=     316.453
 sPSO          -315.243         -125.518         -125.005  iso=    -188.589
        ---------------  ---------------  ---------------
 Total           13.535          166.108          203.951  iso=     127.864

 --------------
 Nucleus   1O :
 --------------

Diamagnetic contribution to the shielding tensor (ppm) : 
           402.416         -5.895       -14.263
            -6.815        392.914         7.418
           -16.218          7.141       407.363

Paramagnetic contribution to the shielding tensor (ppm): 
          -662.892         46.757       108.982
            24.927       -109.512      -196.078
            52.228       -194.343      -494.482

Total shielding tensor (ppm): 
          -260.476         40.862        94.719
            18.112        283.401      -188.659
            36.010       -187.201       -87.119


 Diagonalized sT*s matrix:
 
 sDSO           393.137          419.662          389.894  iso=     400.898
 sPSO          -521.259         -717.587          -28.040  iso=    -422.296
        ---------------  ---------------  ---------------
 Total         -128.122         -297.925          361.854  iso=     -21.398



--------------------------------
CHEMICAL SHIELDING SUMMARY (ppm)
--------------------------------


  Nucleus  Element    Isotropic     Anisotropy
  -------  -------  ------------   ------------
      4       H           23.219          4.278 
      5       H           26.139          5.759 
      6       H           27.656          4.925 
      7       H           29.291          9.813 
      8       H           29.284          9.777 
      0       C           18.097        113.865 
      3       C          160.299         37.708 
      2       N          127.864        114.129 
      1       O          -21.398        574.877 



Maximum memory used throughout the entire EPRNMR-calculation: 22.2 MB

Timings for individual modules:

Sum of individual times         ...        7.256 sec (=   0.121 min)
GTO integral calculation        ...        0.400 sec (=   0.007 min)   5.5 %
SCF iterations                  ...        3.785 sec (=   0.063 min)  52.2 %
EPR/NMR calculation             ...        3.072 sec (=   0.051 min)  42.3 %
                             ****ORCA TERMINATED NORMALLY****
TOTAL RUN TIME: 0 days 0 hours 0 minutes 7 seconds 599 msec
