18
Coordinates from ORCA-job opt
  C   -1.42371292607949      0.32969198799467     -0.22152529850854
  C   -0.99478065005138     -1.06742281692768      0.23328978850567
  C   0.42667078028015     -1.39528884674839     -0.23090074968672
  C   1.42453863601235     -0.32807722486474      0.22552703745237
  C   0.99560963147443      1.06903888115520     -0.22928716767712
  C   -0.42584465559164      1.39690728783686      0.23489375888972
  H   -2.42317397473765      0.55990199116939      0.15460392055743
  H   -1.49024364789228      0.34564014110283     -1.31488688629683
  H   -1.69651894111246     -1.81843995339854     -0.13675444513183
  H   -1.03456342882963     -1.11600346745139      1.32701207033417
  H   0.44130414069065     -1.45440685786765     -1.32473783481216
  H   0.72833491396112     -2.37830034670099      0.13799271668849
  H   2.42400245756730     -0.55828533512686     -0.15059561202004
  H   1.49106143053204     -0.34402899190793      1.31888914692271
  H   1.03540218269770      1.11762307502329     -1.32300891876743
  H   1.69734432833354      1.82005499497574      0.14076622426927
  H   -0.72750677960346      2.37991291061356     -0.13401724363349
  H   -0.44048349765129      1.45604257112263      1.32872949291432
