9
Coordinates from ORCA-job opt
  C   1.47476635590635      0.25188194640989     -0.45686609806296
  O   1.73356167529441      1.32045435228176     -0.96932460398890
  N   2.11818066179419     -0.28439885700415      0.60903687684522
  C   3.20628406070187      0.38588443786005      1.29602500274965
  H   0.66945254143326     -0.40606701937410     -0.82858196532201
  H   1.78588359894875     -1.16663964439244      0.95825886578333
  H   2.88385208556309      0.79908131482739      2.25419170516541
  H   4.03117533623079     -0.30548165875805      1.46742829023780
  H   3.54834368412702      1.20160512814961      0.66485192659237
