9
Coordinates from ORCA-job opt
  C   1.34290775002209      0.29741336596737     -0.31398501364155
  O   1.28007311794392      1.49951292380698     -0.46613080426884
  N   2.23037405389448     -0.33556648122984      0.48866301271861
  C   3.23896846938801      0.37994520334319      1.24941906888888
  H   0.65950363004585     -0.40579909556950     -0.82225920765855
  H   2.21782873081496     -1.34017377334749      0.50786809869794
  H   2.80569475649532      1.29355115724718      1.65113104425891
  H   3.58070645492981     -0.24645219871280      2.07074058728379
  H   4.09544303646535      0.65388889849487      0.62957321372073
