9
Coordinates from ORCA-job opt
  C   1.19243283364684      0.22563477088111     -0.09581952866456
  O   0.72313556260007      1.25519786381651      0.34263501400873
  N   2.40584072280119     -0.26860252979664      0.24048529047644
  C   3.27349817888506      0.40386051281771      1.19146046426554
  H   0.66170700528928     -0.41239203335290     -0.82460428118513
  H   2.69649381198070     -1.13898704301196     -0.16820917268457
  H   3.49577177953610      1.41751062966807      0.85795853286379
  H   2.80071177852065      0.46935384808555      2.17214170528587
  H   4.20190832674000     -0.15525601910747      1.27897197563384
