24
Coordinates from ORCA-job opt
  C   3.14759391840408      0.68032141318563      0.31348566899507
  C   3.49878073899461     -0.63300899421902     -0.02948229123526
  C   2.51193782654093     -1.54548252046123     -0.31847778901854
  C   1.15102858964647     -1.18304121510086     -0.27579275284643
  C   0.78934628269642      0.14597250940223      0.07168443899668
  C   1.82404166686829      1.05736482343430      0.36158537774500
  C   -0.61561401416846      0.50755662066081      0.11343183779661
  C   -1.59223605570716     -0.47669074499569     -0.19565691155858
  C   -1.17874649503579     -1.80124314492763     -0.54073164185376
  C   0.13134513525393     -2.13885002874071     -0.57810412796591
  C   -1.06442620525595      1.80020471344395      0.44920134487291
  C   -2.40590784282774      2.10986955494900      0.47844522639123
  C   -3.36548538067568      1.13444955238540      0.17219223288582
  C   -2.95901333446529     -0.13649089126542     -0.15853083302730
  H   3.91972733338468      1.40287874207377      0.54159507687403
  H   4.53982337590437     -0.92447095996005     -0.06567024602328
  H   2.76840946114445     -2.56317406296091     -0.58476360413998
  H   1.58466219501585      2.07596733754134      0.62796113431765
  H   -1.94222488537296     -2.53315037122482     -0.77226603718208
  H   0.43259762678595     -3.14541777792581     -0.83924640257519
  H   -0.34891754482977      2.57199744004699      0.69033697880202
  H   -2.71947972059789      3.11185153619225      0.73921562600283
  H   -4.41809465327482      1.38234816071899      0.19636215971468
  H   -3.68915801842853     -0.89975169225250     -0.39675446596822
