5
methane
C          1.03724        0.06305        0.06810
H          2.12944        0.06305        0.06810
H          0.67318        0.88245        0.69175
H          0.67317       -0.88674        0.46590
H          0.67317        0.19345       -0.95335
8
ethane
C          0.92957        0.06659       -0.00567
C          2.44165        0.06659       -0.00567
H          0.54530        1.08497        0.10490
H          0.54530       -0.53836        0.82099
H          0.54530       -0.34684       -0.94290
H          2.82592        0.48002        0.93156
H          2.82592        0.67154       -0.83233
H          2.82592       -0.95179       -0.11624
17
pentane
C          1.03717       -0.05039        0.03202
C          2.55766       -0.06232        0.04199
C          3.09240       -1.15966        0.96009
C          4.61979       -1.18069        0.97770
C          5.14030       -2.27623        1.89430
H          0.66720        0.73935       -0.62872
H          0.64104        0.13180        1.03605
H          0.64105       -1.00652       -0.32447
H          2.92434        0.91547        0.37472
H          2.92433       -0.21728       -0.97917
H          2.71605       -2.13397        0.62496
H          2.71605       -1.00170        1.97826
H          5.00343       -0.21188        1.31815
H          5.00345       -1.34483       -0.03597
H          4.79612       -2.12231        2.92204
H          6.23435       -2.28103        1.89832
H          4.79612       -3.26067        1.56143
17
isopentane
C          0.74452       -1.04881        0.50611
C          1.94016       -0.20664        0.92309
C          3.28406       -0.75269        0.43687
C          3.43677       -0.75323       -1.08514
C          4.83186       -1.20384       -1.49392
H         -0.16980       -0.64544        0.95048
H          0.85461       -2.08385        0.84422
H          0.61250       -1.05007       -0.57970
H          1.80428        0.82080        0.56601
H          1.96427       -0.16015        2.01843
H          3.42545       -1.77007        0.82092
H          4.07984       -0.13717        0.87455
H          3.25054        0.25146       -1.48261
H          2.70310       -1.42687       -1.54044
H          5.59097       -0.50366       -1.13011
H          4.91208       -1.25346       -2.58439
H          5.05901       -2.19594       -1.09090
17
neopentane
C          1.84987        2.39033        1.27579
C          2.08217        1.13490        0.45145
C          3.24516        0.30560        0.99484
C          3.50013       -0.92766        0.12774
C          4.62971       -1.78274        0.67926
H          2.69624        3.07820        1.18588
H          1.71377        2.14906        2.33497
H          0.95246        2.91111        0.92737
H          2.27699        1.41931       -0.58806
H          1.16844        0.52789        0.45707
H          4.15417        0.92256        1.02597
H          3.03023       -0.00292        2.02486
H          2.58993       -1.53499        0.05965
H          3.75429       -0.61073       -0.88977
H          5.51390       -1.17916        0.90514
H          4.91651       -2.54670       -0.05068
H          4.31868       -2.29297        1.59626
9
cyclopropane
C         -0.02821        0.86589       -0.05841
C          0.76425       -0.40364        0.07265
C         -0.73725       -0.45203        0.07267
H         -0.04405        1.35813       -1.02381
H         -0.04997        1.54198        0.78864
H          1.27804       -0.58966        1.00860
H          1.28647       -0.76895       -0.80419
H         -1.23804       -0.67072        1.00858
H         -1.23489       -0.85019       -0.80421
18
cyclohexane
C         -1.42059        0.32798       -0.22055
C         -0.99079       -1.06496        0.23414
C          0.42516       -1.39045       -0.23359
C          1.41996       -0.32808        0.22623
C          0.99446        1.06588       -0.22741
C         -0.42546        1.39336        0.23081
H         -2.41457        0.55707        0.18054
H         -1.50452        0.34555       -1.31413
H         -1.69074       -1.81365       -0.15344
H         -1.03516       -1.12043        1.32884
H          0.44219       -1.45748       -1.32822
H          0.72602       -2.37082        0.15224
H          2.41657       -0.55788       -0.16811
H          1.49594       -0.34832        1.32046
H          1.04706        1.12499       -1.32177
H          1.69167        1.81267        0.16780
H         -0.72489        2.37058       -0.16285
H         -0.44487        1.46853        1.32500
12
benzene
C          1.38314       -0.22144        0.00537
C          0.50694       -1.30651       -0.00792
C         -0.87093       -1.09053       -0.01470
C         -1.37290        0.21095       -0.00441
C         -0.49670        1.29607        0.01060
C          0.88118        1.07996        0.01366
H          2.45680       -0.38978        0.00923
H          0.89795       -2.32061       -0.01321
H         -1.55354       -1.93593       -0.02737
H         -2.44648        0.37928       -0.00825
H         -0.88777        2.31003        0.01974
H          1.56378        1.92549        0.02297
