9
Coordinates from ORCA-job opt
  C   1.49461898853167      0.23795149273527     -0.47620072337086
  O   1.80567284525830      1.26520492647951     -1.04134403350477
  N   2.09663539463752     -0.26686921442700      0.62893234249970
  C   3.20278439104565      0.38798227867581      1.30141029239348
  H   0.66614438096529     -0.40390985509904     -0.82435874777473
  H   1.72393406046965     -1.11814732448296      1.01275738851693
  H   2.92558479918154      0.69564013679803      2.31121709892581
  H   4.06991391592384     -0.27154622892417      1.35838170838918
  H   3.46621122398625      1.27001378824451      0.72422467392518
