9
Coordinates from ORCA-job opt
  C   1.12265080066413     -0.20466384345545      0.16394665575386
  O   0.37981880935727     -0.46034558502458     -0.75968299749244
  N   2.40447756347714      0.21417367891486      0.03978064323633
  C   3.27836512325365      0.51307631821690      1.16104315469675
  H   0.80895226026720     -0.29235858491428      1.22101299142447
  H   2.74830827078422      0.32163813103554     -0.90101207544585
  H   2.84150397971642      1.26542624707947      1.81973483571646
  H   4.21383545366215      0.91286301798816      0.77725694721735
  H   3.50898773881770     -0.37786937984066      1.74857984489302
