9
Coordinates from ORCA-job opt
  C   1.09567487704964     -0.08677077886205      0.15397911717527
  O   0.36763356863750     -0.42084251938344     -0.75557011784891
  N   2.43649343894032      0.08630324898567      0.05758340858157
  C   3.29789825333823      0.47834361430121      1.15327506257777
  H   0.72043741849523      0.11563332924738      1.17408994380233
  H   2.83622723878789     -0.06259445277017     -0.85620069995235
  H   2.68489624010281      0.85542814995838      1.97087177868018
  H   3.96903925889478      1.28132533580502      0.84697253771957
  H   3.89859970575343     -0.35488592728204      1.52565896926449
