9
Coordinates from ORCA-job opt
  C   1.28901391541537     -0.47095231589013      0.06371158093909
  O   0.43884118734906     -0.55035101282808     -0.79726445685983
  N   2.22892878871600      0.50074266441446      0.14360023471346
  C   3.24191131768081      0.57587815414447      1.18152655857924
  H   1.37291497408292     -1.20603626827071      0.88591095603764
  H   2.19568224957982      1.21116736765183     -0.57002013811444
  H   3.73433175219099      1.54361079180122      1.12238382358637
  H   4.00663776185717     -0.19592875090023      1.06696878336932
  H   2.79863805312783      0.48380936987715      2.17384265774913
