9
Coordinates from ORCA-job opt
  C   1.16133639169006     -0.29590297825784      0.15733892296942
  O   0.39469230126027     -0.49218343365591     -0.76112771947888
  N   2.36109237108071      0.32412519585691      0.05052787347833
  C   3.26969252714417      0.55402056497824      1.15707211776596
  H   0.94525758155590     -0.61749448039706      1.19316067886108
  H   2.62784271814899      0.61287432919371     -0.87755132901416
  H   3.07933236501211      1.50369536553327      1.66368324988791
  H   4.29671477897677      0.54909413915246      0.79699389887683
  H   3.17093896513091     -0.24628870240379      1.89056230665346
