12
Coordinates from ORCA-job opt
  C   1.37931188470234     -0.22085425262959      0.00536843127607
  C   0.50556827543225     -1.30287237729384     -0.00875356050162
  C   -0.86848589831114     -1.08724319375783     -0.01365640136787
  C   -1.36906618814397      0.21034788498318     -0.00441865868183
  C   -0.49532199142023      1.29236751091442      0.00970383707994
  C   0.87873087194316      1.07673778441120      0.01460575645787
  H   2.44826393608444     -0.38848397862710      0.00916309391887
  H   0.89486650624696     -2.31241448893674     -0.01592802830768
  H   -1.54800361559306     -1.92921195144487     -0.02462394946673
  H   -2.43801773879500      0.37798119642922     -0.00821329522693
  H   -0.88462342256465      2.30190824934178      0.01688354818892
  H   1.55824738041890      1.91870761661017      0.02556922663100
