12
Coordinates from ORCA-job opt E -232.204600705648
  C       1.387260     -0.222050      0.005390
  C       0.508490     -1.310560     -0.008760
  C      -0.873640     -1.093790     -0.013780
  C      -1.377020      0.211540     -0.004440
  C      -0.498240      1.300060      0.009810
  C       0.883880      1.083280      0.014620
  H       2.456520     -0.389750      0.009200
  H       0.897920     -2.320400     -0.015840
  H      -1.553480     -1.935890     -0.024860
  H      -2.446270      0.379250     -0.008250
  H      -0.887670      2.309890      0.017090
  H       1.563720      1.925390      0.025520
12
Coordinates from ORCA-job opt E -232.204955502894
  C       1.380631     -0.221039      0.005372
  C       0.506074     -1.304182     -0.008762
  C      -0.869366     -1.088394     -0.013671
  C      -1.370386      0.210530     -0.004423
  C      -0.495825      1.293679      0.009715
  C       0.879610      1.077887      0.014619
  H       2.449356     -0.388646      0.009166
  H       0.895304     -2.313501     -0.015904
  H      -1.548810     -1.930115     -0.024667
  H      -2.439109      0.378145     -0.008219
  H      -0.885060      2.302995      0.016922
  H       1.559050      1.919611      0.025553
12
Coordinates from ORCA-job opt E -232.204966422733
  C       1.379271     -0.220842      0.005369
  C       0.505563     -1.302847     -0.008751
  C      -0.868469     -1.087237     -0.013659
  C      -1.369025      0.210334     -0.004419
  C      -0.495316      1.292342      0.009706
  C       0.878714      1.076731      0.014603
  H       2.448210     -0.388474      0.009163
  H       0.894863     -2.312374     -0.015921
  H      -1.548003     -1.929172     -0.024630
  H      -2.437963      0.377972     -0.008213
  H      -0.884620      2.301867      0.016890
  H       1.558246      1.918669      0.025562
12
Coordinates from ORCA-job opt E -232.204966419758
  C       1.379312     -0.220854      0.005368
  C       0.505568     -1.302872     -0.008754
  C      -0.868486     -1.087243     -0.013656
  C      -1.369066      0.210348     -0.004419
  C      -0.495322      1.292368      0.009704
  C       0.878731      1.076738      0.014606
  H       2.448264     -0.388484      0.009163
  H       0.894867     -2.312414     -0.015928
  H      -1.548004     -1.929212     -0.024624
  H      -2.438018      0.377981     -0.008213
  H      -0.884623      2.301908      0.016884
  H       1.558247      1.918708      0.025569
