16
Coordinates from ORCA-job opt
  C   0.33029763790224     -1.37334501861039      0.05763681123119
  C   1.32282384206566     -0.49602698250389     -0.06642654222417
  C   1.11328602365797      0.99220316245544     -0.11916839917684
  C   -0.29714905961943      1.38965499045080      0.32362030564633
  C   -1.34327687962024      0.47057242351078     -0.30694031885469
  C   -1.12037903980696     -0.98231320204746      0.12146734264891
  H   0.55983323488788     -2.43195378980213      0.11382601535663
  H   2.34468467976816     -0.85404444905058     -0.13051440676603
  H   1.30038673867978      1.34931923888539     -1.13919683572686
  H   1.86028945621110      1.48978129148653      0.50574990546896
  H   -0.49394272121398      2.43216488232328      0.06635732487314
  H   -0.36625761856498      1.31365129198919      1.41306037104276
  H   -1.26720114886240      0.53899410745847     -1.39641967494128
  H   -2.35150742012883      0.79314071932547     -0.04001358579675
  H   -1.70947548458079     -1.65643128942405     -0.50674075236970
  H   -1.49219224077517     -1.13394737644684      1.14214243958839
