17
Coordinates from ORCA-job opt
  Si  1.06725288697122      0.06697483660642      0.03050097073382
  C   0.43811953502145      0.67402066465641      1.69573418494899
  C   0.44197088133329      1.20898993174327     -1.32675089666477
  C   0.43990036811245     -1.67924353751654     -0.27682684837152
  C   2.94813905570075      0.06520015192654      0.03259224267983
  H   -0.65354271339074      0.67546551395225      1.72806855371640
  H   0.77735099524046      1.69197463392068      1.89916772267705
  H   0.79283590853354      0.03735736191004      2.50909694083535
  H   -0.64958296476815      1.23128246951276     -1.35373291414206
  H   0.79141110520661      0.88437105774883     -2.30925043457130
  H   0.79034870110412      2.23259661389007     -1.17272634831566
  H   -0.65158307720588     -1.71530776712584     -0.26355306968319
  H   0.80345953628515     -2.36952436253142      0.48738726680056
  H   0.77232326677352     -2.05423395560820     -1.24724626607647
  H   3.34439086249175      1.06446345515053      0.22565153381901
  H   3.34484786002322     -0.26886378931403     -0.92856512214308
  H   3.34135779256725     -0.60145327892178      0.80312248375705
