17
Coordinates from ORCA-job opt E -449.131965042744
  Si      1.067000      0.067300      0.031330
  C       0.444780      0.667300      1.685770
  C       0.444790      1.200070     -1.315520
  C       0.444790     -1.665500     -0.276260
  C       2.933640      0.067310      0.031340
  H      -0.664530      0.667160      1.685380
  H       0.814740      1.697070      1.868210
  H       0.814740     -0.006110      2.485900
  H      -0.664520      1.199810     -1.315210
  H       0.814760      0.843190     -2.298530
  H       0.814750      2.229710     -1.132380
  H      -0.664520     -1.665090     -0.276190
  H       0.814740     -2.338380      0.524320
  H       0.814750     -2.021720     -1.259520
  H       3.303020      1.097220      0.214170
  H       3.303040     -0.289300     -0.951990
  H       3.303030     -0.605970      0.831850
17
Coordinates from ORCA-job opt E -449.135535603889
  Si      1.067071      0.067252      0.031051
  C       0.441897      0.670098      1.692038
  C       0.442384      1.204996     -1.321271
  C       0.442208     -1.672855     -0.277105
  C       2.941518      0.066944      0.031554
  H      -0.650078      0.673345      1.704646
  H       0.798455      1.684456      1.883073
  H       0.800304      0.015762      2.489490
  H      -0.649567      1.213685     -1.331869
  H       0.800376      0.864505     -2.295207
  H       0.799893      2.222922     -1.151996
  H      -0.649783     -1.686608     -0.276250
  H       0.802352     -2.346115      0.503599
  H       0.797310     -2.034908     -1.244339
  H       3.318330      1.075762      0.213085
  H       3.318511     -0.280701     -0.932643
  H       3.317818     -0.594470      0.814814
17
Coordinates from ORCA-job opt E -449.135962900756
  Si      1.067136      0.067187      0.030821
  C       0.439636      0.672386      1.695999
  C       0.441161      1.208249     -1.325414
  C       0.440369     -1.677873     -0.277477
  C       2.946872      0.066399      0.031957
  H      -0.650298      0.676435      1.718012
  H       0.788721      1.686009      1.893783
  H       0.794476      0.026456      2.499295
  H      -0.648724      1.223193     -1.343988
  H       0.794449      0.876069     -2.301817
  H       0.793251      2.227325     -1.164019
  H      -0.649546     -1.702068     -0.272852
  H       0.799644     -2.358051      0.494946
  H       0.785697     -2.046235     -1.243730
  H       3.332359      1.069297      0.216678
  H       3.332693     -0.275983     -0.928479
  H       3.331105     -0.594726      0.808954
17
Coordinates from ORCA-job opt E -449.136090770911
  Si      1.067197      0.067102      0.030624
  C       0.438050      0.674041      1.697980
  C       0.440780      1.210099     -1.327957
  C       0.439267     -1.680822     -0.277490
  C       2.949979      0.065791      0.032371
  H      -0.652833      0.677718      1.727571
  H       0.781155      1.689893      1.900895
  H       0.791651      0.033967      2.508015
  H      -0.650022      1.230086     -1.352898
  H       0.791268      0.883665     -2.308549
  H       0.789557      2.232404     -1.172263
  H      -0.651523     -1.713514     -0.268312
  H       0.800010     -2.368204      0.489450
  H       0.776408     -2.054510     -1.245842
  H       3.343229      1.066086      0.221414
  H       3.343696     -0.271977     -0.927766
  H       3.341132     -0.597756      0.805426
17
Coordinates from ORCA-job opt E -449.136100109788
  Si      1.067220      0.067056      0.030571
  C       0.437928      0.674204      1.697381
  C       0.441182      1.209856     -1.327794
  C       0.439368     -1.680525     -0.277258
  C       2.949617      0.065529      0.032512
  H      -0.653556      0.677030      1.728666
  H       0.779190      1.691232      1.900972
  H       0.791944      0.035720      2.509356
  H      -0.650210      1.231051     -1.354080
  H       0.791190      0.884496     -2.309627
  H       0.789544      2.233156     -1.173172
  H      -0.651986     -1.715180     -0.266090
  H       0.801418     -2.369772      0.488312
  H       0.774062     -2.055169     -1.246809
  H       3.344695      1.065436      0.223495
  H       3.345186     -0.270502     -0.928202
  H       3.342207     -0.599547      0.804436
17
Coordinates from ORCA-job opt E -449.136102885732
  Si      1.067239      0.067009      0.030531
  C       0.438024      0.674126      1.696411
  C       0.441669      1.209338     -1.327211
  C       0.439664     -1.679776     -0.276996
  C       2.948758      0.065322      0.032583
  H      -0.653676      0.676109      1.728506
  H       0.777976      1.691838      1.900030
  H       0.792489      0.036792      2.509407
  H      -0.649930      1.231255     -1.354074
  H       0.791347      0.884507     -2.309595
  H       0.789965      2.232986     -1.173055
  H      -0.651876     -1.715449     -0.264414
  H       0.802721     -2.369871      0.487671
  H       0.772802     -2.054734     -1.247222
  H       3.344721      1.064871      0.224951
  H       3.345205     -0.269423     -0.928485
  H       3.341902     -0.600831      0.803631
17
Coordinates from ORCA-job opt E -449.136103465445
  Si      1.067253      0.066975      0.030501
  C       0.438120      0.674021      1.695734
  C       0.441971      1.208990     -1.326751
  C       0.439900     -1.679244     -0.276827
  C       2.948139      0.065200      0.032592
  H      -0.653543      0.675466      1.728069
  H       0.777351      1.691975      1.899168
  H       0.792836      0.037357      2.509097
  H      -0.649583      1.231282     -1.353733
  H       0.791411      0.884371     -2.309250
  H       0.790349      2.232597     -1.172726
  H      -0.651583     -1.715308     -0.263553
  H       0.803460     -2.369524      0.487387
  H       0.772323     -2.054234     -1.247246
  H       3.344391      1.064463      0.225652
  H       3.344848     -0.268864     -0.928565
  H       3.341358     -0.601453      0.803122
